%YAML 1.1
%TAG !u! tag:unity3d.com,2011:
--- !u!1 &3870553697114143985
GameObject:
  m_ObjectHideFlags: 0
  m_CorrespondingSourceObject: {fileID: 0}
  m_PrefabInstance: {fileID: 0}
  m_PrefabAsset: {fileID: 0}
  serializedVersion: 6
  m_Component:
  - component: {fileID: 8930841689222223368}
  - component: {fileID: 6711247103236897615}
  - component: {fileID: 4218452133060167122}
  m_Layer: 0
  m_Name: Layer1
  m_TagString: Untagged
  m_Icon: {fileID: 0}
  m_NavMeshLayer: 0
  m_StaticEditorFlags: 0
  m_IsActive: 1
--- !u!4 &8930841689222223368
Transform:
  m_ObjectHideFlags: 0
  m_CorrespondingSourceObject: {fileID: 0}
  m_PrefabInstance: {fileID: 0}
  m_PrefabAsset: {fileID: 0}
  m_GameObject: {fileID: 3870553697114143985}
  m_LocalRotation: {x: -0, y: -0, z: -0, w: 1}
  m_LocalPosition: {x: 0, y: 0, z: 0}
  m_LocalScale: {x: 1, y: 1, z: 1}
  m_ConstrainProportionsScale: 0
  m_Children: []
  m_Father: {fileID: 954503756807375242}
  m_RootOrder: 0
  m_LocalEulerAnglesHint: {x: 0, y: 0, z: 0}
--- !u!1839735485 &6711247103236897615
Tilemap:
  m_ObjectHideFlags: 0
  m_CorrespondingSourceObject: {fileID: 0}
  m_PrefabInstance: {fileID: 0}
  m_PrefabAsset: {fileID: 0}
  m_GameObject: {fileID: 3870553697114143985}
  m_Enabled: 1
  m_Tiles:
  - first: {x: -1, y: -11, z: 0}
    second:
      serializedVersion: 2
      m_TileIndex: 132
      m_TileSpriteIndex: 132
      m_TileMatrixIndex: 0
      m_TileColorIndex: 0
      m_TileObjectToInstantiateIndex: 65535
      dummyAlignment: 0
      m_AllTileFlags: 1073741825
  - first: {x: 0, y: -11, z: 0}
    second:
      serializedVersion: 2
      m_TileIndex: 133
      m_TileSpriteIndex: 133
      m_TileMatrixIndex: 0
      m_TileColorIndex: 0
      m_TileObjectToInstantiateIndex: 65535
      dummyAlignment: 0
      m_AllTileFlags: 1073741825
  - first: {x: 1, y: -11, z: 0}
    second:
      serializedVersion: 2
      m_TileIndex: 134
      m_TileSpriteIndex: 134
      m_TileMatrixIndex: 0
      m_TileColorIndex: 0
      m_TileObjectToInstantiateIndex: 65535
      dummyAlignment: 0
      m_AllTileFlags: 1073741825
  - first: {x: 5, y: -11, z: 0}
    second:
      serializedVersion: 2
      m_TileIndex: 135
      m_TileSpriteIndex: 135
      m_TileMatrixIndex: 0
      m_TileColorIndex: 0
      m_TileObjectToInstantiateIndex: 65535
      dummyAlignment: 0
      m_AllTileFlags: 1073741825
  - first: {x: 6, y: -11, z: 0}
    second:
      serializedVersion: 2
      m_TileIndex: 136
      m_TileSpriteIndex: 136
      m_TileMatrixIndex: 0
      m_TileColorIndex: 0
      m_TileObjectToInstantiateIndex: 65535
      dummyAlignment: 0
      m_AllTileFlags: 1073741825
  - first: {x: 7, y: -11, z: 0}
    second:
      serializedVersion: 2
      m_TileIndex: 137
      m_TileSpriteIndex: 137
      m_TileMatrixIndex: 0
      m_TileColorIndex: 0
      m_TileObjectToInstantiateIndex: 65535
      dummyAlignment: 0
      m_AllTileFlags: 1073741825
  - first: {x: 12, y: -11, z: 0}
    second:
      serializedVersion: 2
      m_TileIndex: 138
      m_TileSpriteIndex: 138
      m_TileMatrixIndex: 0
      m_TileColorIndex: 0
      m_TileObjectToInstantiateIndex: 65535
      dummyAlignment: 0
      m_AllTileFlags: 1073741825
  - first: {x: 13, y: -11, z: 0}
    second:
      serializedVersion: 2
      m_TileIndex: 139
      m_TileSpriteIndex: 139
      m_TileMatrixIndex: 0
      m_TileColorIndex: 0
      m_TileObjectToInstantiateIndex: 65535
      dummyAlignment: 0
      m_AllTileFlags: 1073741825
  - first: {x: 14, y: -11, z: 0}
    second:
      serializedVersion: 2
      m_TileIndex: 140
      m_TileSpriteIndex: 140
      m_TileMatrixIndex: 0
      m_TileColorIndex: 0
      m_TileObjectToInstantiateIndex: 65535
      dummyAlignment: 0
      m_AllTileFlags: 1073741825
  - first: {x: 17, y: -11, z: 0}
    second:
      serializedVersion: 2
      m_TileIndex: 141
      m_TileSpriteIndex: 141
      m_TileMatrixIndex: 0
      m_TileColorIndex: 0
      m_TileObjectToInstantiateIndex: 65535
      dummyAlignment: 0
      m_AllTileFlags: 1073741825
  - first: {x: 18, y: -11, z: 0}
    second:
      serializedVersion: 2
      m_TileIndex: 142
      m_TileSpriteIndex: 142
      m_TileMatrixIndex: 0
      m_TileColorIndex: 0
      m_TileObjectToInstantiateIndex: 65535
      dummyAlignment: 0
      m_AllTileFlags: 1073741825
  - first: {x: 19, y: -11, z: 0}
    second:
      serializedVersion: 2
      m_TileIndex: 143
      m_TileSpriteIndex: 143
      m_TileMatrixIndex: 0
      m_TileColorIndex: 0
      m_TileObjectToInstantiateIndex: 65535
      dummyAlignment: 0
      m_AllTileFlags: 1073741825
  - first: {x: -1, y: -10, z: 0}
    second:
      serializedVersion: 2
      m_TileIndex: 114
      m_TileSpriteIndex: 114
      m_TileMatrixIndex: 0
      m_TileColorIndex: 0
      m_TileObjectToInstantiateIndex: 65535
      dummyAlignment: 0
      m_AllTileFlags: 1073741825
  - first: {x: 0, y: -10, z: 0}
    second:
      serializedVersion: 2
      m_TileIndex: 115
      m_TileSpriteIndex: 115
      m_TileMatrixIndex: 0
      m_TileColorIndex: 0
      m_TileObjectToInstantiateIndex: 65535
      dummyAlignment: 0
      m_AllTileFlags: 1073741825
  - first: {x: 1, y: -10, z: 0}
    second:
      serializedVersion: 2
      m_TileIndex: 116
      m_TileSpriteIndex: 116
      m_TileMatrixIndex: 0
      m_TileColorIndex: 0
      m_TileObjectToInstantiateIndex: 65535
      dummyAlignment: 0
      m_AllTileFlags: 1073741825
  - first: {x: 2, y: -10, z: 0}
    second:
      serializedVersion: 2
      m_TileIndex: 117
      m_TileSpriteIndex: 117
      m_TileMatrixIndex: 0
      m_TileColorIndex: 0
      m_TileObjectToInstantiateIndex: 65535
      dummyAlignment: 0
      m_AllTileFlags: 1073741825
  - first: {x: 3, y: -10, z: 0}
    second:
      serializedVersion: 2
      m_TileIndex: 118
      m_TileSpriteIndex: 118
      m_TileMatrixIndex: 0
      m_TileColorIndex: 0
      m_TileObjectToInstantiateIndex: 65535
      dummyAlignment: 0
      m_AllTileFlags: 1073741825
  - first: {x: 5, y: -10, z: 0}
    second:
      serializedVersion: 2
      m_TileIndex: 119
      m_TileSpriteIndex: 119
      m_TileMatrixIndex: 0
      m_TileColorIndex: 0
      m_TileObjectToInstantiateIndex: 65535
      dummyAlignment: 0
      m_AllTileFlags: 1073741825
  - first: {x: 6, y: -10, z: 0}
    second:
      serializedVersion: 2
      m_TileIndex: 120
      m_TileSpriteIndex: 120
      m_TileMatrixIndex: 0
      m_TileColorIndex: 0
      m_TileObjectToInstantiateIndex: 65535
      dummyAlignment: 0
      m_AllTileFlags: 1073741825
  - first: {x: 7, y: -10, z: 0}
    second:
      serializedVersion: 2
      m_TileIndex: 121
      m_TileSpriteIndex: 121
      m_TileMatrixIndex: 0
      m_TileColorIndex: 0
      m_TileObjectToInstantiateIndex: 65535
      dummyAlignment: 0
      m_AllTileFlags: 1073741825
  - first: {x: 8, y: -10, z: 0}
    second:
      serializedVersion: 2
      m_TileIndex: 122
      m_TileSpriteIndex: 122
      m_TileMatrixIndex: 0
      m_TileColorIndex: 0
      m_TileObjectToInstantiateIndex: 65535
      dummyAlignment: 0
      m_AllTileFlags: 1073741825
  - first: {x: 9, y: -10, z: 0}
    second:
      serializedVersion: 2
      m_TileIndex: 123
      m_TileSpriteIndex: 123
      m_TileMatrixIndex: 0
      m_TileColorIndex: 0
      m_TileObjectToInstantiateIndex: 65535
      dummyAlignment: 0
      m_AllTileFlags: 1073741825
  - first: {x: 11, y: -10, z: 0}
    second:
      serializedVersion: 2
      m_TileIndex: 124
      m_TileSpriteIndex: 124
      m_TileMatrixIndex: 0
      m_TileColorIndex: 0
      m_TileObjectToInstantiateIndex: 65535
      dummyAlignment: 0
      m_AllTileFlags: 1073741825
  - first: {x: 12, y: -10, z: 0}
    second:
      serializedVersion: 2
      m_TileIndex: 125
      m_TileSpriteIndex: 125
      m_TileMatrixIndex: 0
      m_TileColorIndex: 0
      m_TileObjectToInstantiateIndex: 65535
      dummyAlignment: 0
      m_AllTileFlags: 1073741825
  - first: {x: 13, y: -10, z: 0}
    second:
      serializedVersion: 2
      m_TileIndex: 126
      m_TileSpriteIndex: 126
      m_TileMatrixIndex: 0
      m_TileColorIndex: 0
      m_TileObjectToInstantiateIndex: 65535
      dummyAlignment: 0
      m_AllTileFlags: 1073741825
  - first: {x: 14, y: -10, z: 0}
    second:
      serializedVersion: 2
      m_TileIndex: 127
      m_TileSpriteIndex: 127
      m_TileMatrixIndex: 0
      m_TileColorIndex: 0
      m_TileObjectToInstantiateIndex: 65535
      dummyAlignment: 0
      m_AllTileFlags: 1073741825
  - first: {x: 16, y: -10, z: 0}
    second:
      serializedVersion: 2
      m_TileIndex: 128
      m_TileSpriteIndex: 128
      m_TileMatrixIndex: 0
      m_TileColorIndex: 0
      m_TileObjectToInstantiateIndex: 65535
      dummyAlignment: 0
      m_AllTileFlags: 1073741825
  - first: {x: 17, y: -10, z: 0}
    second:
      serializedVersion: 2
      m_TileIndex: 129
      m_TileSpriteIndex: 129
      m_TileMatrixIndex: 0
      m_TileColorIndex: 0
      m_TileObjectToInstantiateIndex: 65535
      dummyAlignment: 0
      m_AllTileFlags: 1073741825
  - first: {x: 18, y: -10, z: 0}
    second:
      serializedVersion: 2
      m_TileIndex: 130
      m_TileSpriteIndex: 130
      m_TileMatrixIndex: 0
      m_TileColorIndex: 0
      m_TileObjectToInstantiateIndex: 65535
      dummyAlignment: 0
      m_AllTileFlags: 1073741825
  - first: {x: 19, y: -10, z: 0}
    second:
      serializedVersion: 2
      m_TileIndex: 131
      m_TileSpriteIndex: 131
      m_TileMatrixIndex: 0
      m_TileColorIndex: 0
      m_TileObjectToInstantiateIndex: 65535
      dummyAlignment: 0
      m_AllTileFlags: 1073741825
  - first: {x: -1, y: -9, z: 0}
    second:
      serializedVersion: 2
      m_TileIndex: 96
      m_TileSpriteIndex: 96
      m_TileMatrixIndex: 0
      m_TileColorIndex: 0
      m_TileObjectToInstantiateIndex: 65535
      dummyAlignment: 0
      m_AllTileFlags: 1073741825
  - first: {x: 0, y: -9, z: 0}
    second:
      serializedVersion: 2
      m_TileIndex: 97
      m_TileSpriteIndex: 97
      m_TileMatrixIndex: 0
      m_TileColorIndex: 0
      m_TileObjectToInstantiateIndex: 65535
      dummyAlignment: 0
      m_AllTileFlags: 1073741825
  - first: {x: 1, y: -9, z: 0}
    second:
      serializedVersion: 2
      m_TileIndex: 98
      m_TileSpriteIndex: 98
      m_TileMatrixIndex: 0
      m_TileColorIndex: 0
      m_TileObjectToInstantiateIndex: 65535
      dummyAlignment: 0
      m_AllTileFlags: 1073741825
  - first: {x: 2, y: -9, z: 0}
    second:
      serializedVersion: 2
      m_TileIndex: 99
      m_TileSpriteIndex: 99
      m_TileMatrixIndex: 0
      m_TileColorIndex: 0
      m_TileObjectToInstantiateIndex: 65535
      dummyAlignment: 0
      m_AllTileFlags: 1073741825
  - first: {x: 3, y: -9, z: 0}
    second:
      serializedVersion: 2
      m_TileIndex: 100
      m_TileSpriteIndex: 100
      m_TileMatrixIndex: 0
      m_TileColorIndex: 0
      m_TileObjectToInstantiateIndex: 65535
      dummyAlignment: 0
      m_AllTileFlags: 1073741825
  - first: {x: 5, y: -9, z: 0}
    second:
      serializedVersion: 2
      m_TileIndex: 101
      m_TileSpriteIndex: 101
      m_TileMatrixIndex: 0
      m_TileColorIndex: 0
      m_TileObjectToInstantiateIndex: 65535
      dummyAlignment: 0
      m_AllTileFlags: 1073741825
  - first: {x: 6, y: -9, z: 0}
    second:
      serializedVersion: 2
      m_TileIndex: 102
      m_TileSpriteIndex: 102
      m_TileMatrixIndex: 0
      m_TileColorIndex: 0
      m_TileObjectToInstantiateIndex: 65535
      dummyAlignment: 0
      m_AllTileFlags: 1073741825
  - first: {x: 7, y: -9, z: 0}
    second:
      serializedVersion: 2
      m_TileIndex: 103
      m_TileSpriteIndex: 103
      m_TileMatrixIndex: 0
      m_TileColorIndex: 0
      m_TileObjectToInstantiateIndex: 65535
      dummyAlignment: 0
      m_AllTileFlags: 1073741825
  - first: {x: 8, y: -9, z: 0}
    second:
      serializedVersion: 2
      m_TileIndex: 104
      m_TileSpriteIndex: 104
      m_TileMatrixIndex: 0
      m_TileColorIndex: 0
      m_TileObjectToInstantiateIndex: 65535
      dummyAlignment: 0
      m_AllTileFlags: 1073741825
  - first: {x: 9, y: -9, z: 0}
    second:
      serializedVersion: 2
      m_TileIndex: 105
      m_TileSpriteIndex: 105
      m_TileMatrixIndex: 0
      m_TileColorIndex: 0
      m_TileObjectToInstantiateIndex: 65535
      dummyAlignment: 0
      m_AllTileFlags: 1073741825
  - first: {x: 11, y: -9, z: 0}
    second:
      serializedVersion: 2
      m_TileIndex: 106
      m_TileSpriteIndex: 106
      m_TileMatrixIndex: 0
      m_TileColorIndex: 0
      m_TileObjectToInstantiateIndex: 65535
      dummyAlignment: 0
      m_AllTileFlags: 1073741825
  - first: {x: 12, y: -9, z: 0}
    second:
      serializedVersion: 2
      m_TileIndex: 107
      m_TileSpriteIndex: 107
      m_TileMatrixIndex: 0
      m_TileColorIndex: 0
      m_TileObjectToInstantiateIndex: 65535
      dummyAlignment: 0
      m_AllTileFlags: 1073741825
  - first: {x: 13, y: -9, z: 0}
    second:
      serializedVersion: 2
      m_TileIndex: 108
      m_TileSpriteIndex: 108
      m_TileMatrixIndex: 0
      m_TileColorIndex: 0
      m_TileObjectToInstantiateIndex: 65535
      dummyAlignment: 0
      m_AllTileFlags: 1073741825
  - first: {x: 14, y: -9, z: 0}
    second:
      serializedVersion: 2
      m_TileIndex: 109
      m_TileSpriteIndex: 109
      m_TileMatrixIndex: 0
      m_TileColorIndex: 0
      m_TileObjectToInstantiateIndex: 65535
      dummyAlignment: 0
      m_AllTileFlags: 1073741825
  - first: {x: 16, y: -9, z: 0}
    second:
      serializedVersion: 2
      m_TileIndex: 110
      m_TileSpriteIndex: 110
      m_TileMatrixIndex: 0
      m_TileColorIndex: 0
      m_TileObjectToInstantiateIndex: 65535
      dummyAlignment: 0
      m_AllTileFlags: 1073741825
  - first: {x: 17, y: -9, z: 0}
    second:
      serializedVersion: 2
      m_TileIndex: 111
      m_TileSpriteIndex: 111
      m_TileMatrixIndex: 0
      m_TileColorIndex: 0
      m_TileObjectToInstantiateIndex: 65535
      dummyAlignment: 0
      m_AllTileFlags: 1073741825
  - first: {x: 18, y: -9, z: 0}
    second:
      serializedVersion: 2
      m_TileIndex: 112
      m_TileSpriteIndex: 112
      m_TileMatrixIndex: 0
      m_TileColorIndex: 0
      m_TileObjectToInstantiateIndex: 65535
      dummyAlignment: 0
      m_AllTileFlags: 1073741825
  - first: {x: 19, y: -9, z: 0}
    second:
      serializedVersion: 2
      m_TileIndex: 113
      m_TileSpriteIndex: 113
      m_TileMatrixIndex: 0
      m_TileColorIndex: 0
      m_TileObjectToInstantiateIndex: 65535
      dummyAlignment: 0
      m_AllTileFlags: 1073741825
  - first: {x: -1, y: -7, z: 0}
    second:
      serializedVersion: 2
      m_TileIndex: 84
      m_TileSpriteIndex: 84
      m_TileMatrixIndex: 0
      m_TileColorIndex: 0
      m_TileObjectToInstantiateIndex: 65535
      dummyAlignment: 0
      m_AllTileFlags: 1073741825
  - first: {x: 0, y: -7, z: 0}
    second:
      serializedVersion: 2
      m_TileIndex: 85
      m_TileSpriteIndex: 85
      m_TileMatrixIndex: 0
      m_TileColorIndex: 0
      m_TileObjectToInstantiateIndex: 65535
      dummyAlignment: 0
      m_AllTileFlags: 1073741825
  - first: {x: 1, y: -7, z: 0}
    second:
      serializedVersion: 2
      m_TileIndex: 86
      m_TileSpriteIndex: 86
      m_TileMatrixIndex: 0
      m_TileColorIndex: 0
      m_TileObjectToInstantiateIndex: 65535
      dummyAlignment: 0
      m_AllTileFlags: 1073741825
  - first: {x: 5, y: -7, z: 0}
    second:
      serializedVersion: 2
      m_TileIndex: 87
      m_TileSpriteIndex: 87
      m_TileMatrixIndex: 0
      m_TileColorIndex: 0
      m_TileObjectToInstantiateIndex: 65535
      dummyAlignment: 0
      m_AllTileFlags: 1073741825
  - first: {x: 6, y: -7, z: 0}
    second:
      serializedVersion: 2
      m_TileIndex: 88
      m_TileSpriteIndex: 88
      m_TileMatrixIndex: 0
      m_TileColorIndex: 0
      m_TileObjectToInstantiateIndex: 65535
      dummyAlignment: 0
      m_AllTileFlags: 1073741825
  - first: {x: 7, y: -7, z: 0}
    second:
      serializedVersion: 2
      m_TileIndex: 89
      m_TileSpriteIndex: 89
      m_TileMatrixIndex: 0
      m_TileColorIndex: 0
      m_TileObjectToInstantiateIndex: 65535
      dummyAlignment: 0
      m_AllTileFlags: 1073741825
  - first: {x: 12, y: -7, z: 0}
    second:
      serializedVersion: 2
      m_TileIndex: 90
      m_TileSpriteIndex: 90
      m_TileMatrixIndex: 0
      m_TileColorIndex: 0
      m_TileObjectToInstantiateIndex: 65535
      dummyAlignment: 0
      m_AllTileFlags: 1073741825
  - first: {x: 13, y: -7, z: 0}
    second:
      serializedVersion: 2
      m_TileIndex: 91
      m_TileSpriteIndex: 91
      m_TileMatrixIndex: 0
      m_TileColorIndex: 0
      m_TileObjectToInstantiateIndex: 65535
      dummyAlignment: 0
      m_AllTileFlags: 1073741825
  - first: {x: 14, y: -7, z: 0}
    second:
      serializedVersion: 2
      m_TileIndex: 92
      m_TileSpriteIndex: 92
      m_TileMatrixIndex: 0
      m_TileColorIndex: 0
      m_TileObjectToInstantiateIndex: 65535
      dummyAlignment: 0
      m_AllTileFlags: 1073741825
  - first: {x: 16, y: -7, z: 0}
    second:
      serializedVersion: 2
      m_TileIndex: 93
      m_TileSpriteIndex: 93
      m_TileMatrixIndex: 0
      m_TileColorIndex: 0
      m_TileObjectToInstantiateIndex: 65535
      dummyAlignment: 0
      m_AllTileFlags: 1073741825
  - first: {x: 17, y: -7, z: 0}
    second:
      serializedVersion: 2
      m_TileIndex: 94
      m_TileSpriteIndex: 94
      m_TileMatrixIndex: 0
      m_TileColorIndex: 0
      m_TileObjectToInstantiateIndex: 65535
      dummyAlignment: 0
      m_AllTileFlags: 1073741825
  - first: {x: 18, y: -7, z: 0}
    second:
      serializedVersion: 2
      m_TileIndex: 95
      m_TileSpriteIndex: 95
      m_TileMatrixIndex: 0
      m_TileColorIndex: 0
      m_TileObjectToInstantiateIndex: 65535
      dummyAlignment: 0
      m_AllTileFlags: 1073741825
  - first: {x: -1, y: -6, z: 0}
    second:
      serializedVersion: 2
      m_TileIndex: 65
      m_TileSpriteIndex: 65
      m_TileMatrixIndex: 0
      m_TileColorIndex: 0
      m_TileObjectToInstantiateIndex: 65535
      dummyAlignment: 0
      m_AllTileFlags: 1073741825
  - first: {x: 0, y: -6, z: 0}
    second:
      serializedVersion: 2
      m_TileIndex: 66
      m_TileSpriteIndex: 66
      m_TileMatrixIndex: 0
      m_TileColorIndex: 0
      m_TileObjectToInstantiateIndex: 65535
      dummyAlignment: 0
      m_AllTileFlags: 1073741825
  - first: {x: 1, y: -6, z: 0}
    second:
      serializedVersion: 2
      m_TileIndex: 67
      m_TileSpriteIndex: 67
      m_TileMatrixIndex: 0
      m_TileColorIndex: 0
      m_TileObjectToInstantiateIndex: 65535
      dummyAlignment: 0
      m_AllTileFlags: 1073741825
  - first: {x: 2, y: -6, z: 0}
    second:
      serializedVersion: 2
      m_TileIndex: 68
      m_TileSpriteIndex: 68
      m_TileMatrixIndex: 0
      m_TileColorIndex: 0
      m_TileObjectToInstantiateIndex: 65535
      dummyAlignment: 0
      m_AllTileFlags: 1073741825
  - first: {x: 3, y: -6, z: 0}
    second:
      serializedVersion: 2
      m_TileIndex: 69
      m_TileSpriteIndex: 69
      m_TileMatrixIndex: 0
      m_TileColorIndex: 0
      m_TileObjectToInstantiateIndex: 65535
      dummyAlignment: 0
      m_AllTileFlags: 1073741825
  - first: {x: 5, y: -6, z: 0}
    second:
      serializedVersion: 2
      m_TileIndex: 70
      m_TileSpriteIndex: 70
      m_TileMatrixIndex: 0
      m_TileColorIndex: 0
      m_TileObjectToInstantiateIndex: 65535
      dummyAlignment: 0
      m_AllTileFlags: 1073741825
  - first: {x: 6, y: -6, z: 0}
    second:
      serializedVersion: 2
      m_TileIndex: 71
      m_TileSpriteIndex: 71
      m_TileMatrixIndex: 0
      m_TileColorIndex: 0
      m_TileObjectToInstantiateIndex: 65535
      dummyAlignment: 0
      m_AllTileFlags: 1073741825
  - first: {x: 7, y: -6, z: 0}
    second:
      serializedVersion: 2
      m_TileIndex: 72
      m_TileSpriteIndex: 72
      m_TileMatrixIndex: 0
      m_TileColorIndex: 0
      m_TileObjectToInstantiateIndex: 65535
      dummyAlignment: 0
      m_AllTileFlags: 1073741825
  - first: {x: 8, y: -6, z: 0}
    second:
      serializedVersion: 2
      m_TileIndex: 73
      m_TileSpriteIndex: 73
      m_TileMatrixIndex: 0
      m_TileColorIndex: 0
      m_TileObjectToInstantiateIndex: 65535
      dummyAlignment: 0
      m_AllTileFlags: 1073741825
  - first: {x: 9, y: -6, z: 0}
    second:
      serializedVersion: 2
      m_TileIndex: 74
      m_TileSpriteIndex: 74
      m_TileMatrixIndex: 0
      m_TileColorIndex: 0
      m_TileObjectToInstantiateIndex: 65535
      dummyAlignment: 0
      m_AllTileFlags: 1073741825
  - first: {x: 11, y: -6, z: 0}
    second:
      serializedVersion: 2
      m_TileIndex: 75
      m_TileSpriteIndex: 75
      m_TileMatrixIndex: 0
      m_TileColorIndex: 0
      m_TileObjectToInstantiateIndex: 65535
      dummyAlignment: 0
      m_AllTileFlags: 1073741825
  - first: {x: 12, y: -6, z: 0}
    second:
      serializedVersion: 2
      m_TileIndex: 76
      m_TileSpriteIndex: 76
      m_TileMatrixIndex: 0
      m_TileColorIndex: 0
      m_TileObjectToInstantiateIndex: 65535
      dummyAlignment: 0
      m_AllTileFlags: 1073741825
  - first: {x: 13, y: -6, z: 0}
    second:
      serializedVersion: 2
      m_TileIndex: 77
      m_TileSpriteIndex: 77
      m_TileMatrixIndex: 0
      m_TileColorIndex: 0
      m_TileObjectToInstantiateIndex: 65535
      dummyAlignment: 0
      m_AllTileFlags: 1073741825
  - first: {x: 14, y: -6, z: 0}
    second:
      serializedVersion: 2
      m_TileIndex: 78
      m_TileSpriteIndex: 78
      m_TileMatrixIndex: 0
      m_TileColorIndex: 0
      m_TileObjectToInstantiateIndex: 65535
      dummyAlignment: 0
      m_AllTileFlags: 1073741825
  - first: {x: 16, y: -6, z: 0}
    second:
      serializedVersion: 2
      m_TileIndex: 79
      m_TileSpriteIndex: 79
      m_TileMatrixIndex: 0
      m_TileColorIndex: 0
      m_TileObjectToInstantiateIndex: 65535
      dummyAlignment: 0
      m_AllTileFlags: 1073741825
  - first: {x: 17, y: -6, z: 0}
    second:
      serializedVersion: 2
      m_TileIndex: 80
      m_TileSpriteIndex: 80
      m_TileMatrixIndex: 0
      m_TileColorIndex: 0
      m_TileObjectToInstantiateIndex: 65535
      dummyAlignment: 0
      m_AllTileFlags: 1073741825
  - first: {x: 18, y: -6, z: 0}
    second:
      serializedVersion: 2
      m_TileIndex: 81
      m_TileSpriteIndex: 81
      m_TileMatrixIndex: 0
      m_TileColorIndex: 0
      m_TileObjectToInstantiateIndex: 65535
      dummyAlignment: 0
      m_AllTileFlags: 1073741825
  - first: {x: 19, y: -6, z: 0}
    second:
      serializedVersion: 2
      m_TileIndex: 82
      m_TileSpriteIndex: 82
      m_TileMatrixIndex: 0
      m_TileColorIndex: 0
      m_TileObjectToInstantiateIndex: 65535
      dummyAlignment: 0
      m_AllTileFlags: 1073741825
  - first: {x: 20, y: -6, z: 0}
    second:
      serializedVersion: 2
      m_TileIndex: 83
      m_TileSpriteIndex: 83
      m_TileMatrixIndex: 0
      m_TileColorIndex: 0
      m_TileObjectToInstantiateIndex: 65535
      dummyAlignment: 0
      m_AllTileFlags: 1073741825
  - first: {x: -1, y: -5, z: 0}
    second:
      serializedVersion: 2
      m_TileIndex: 46
      m_TileSpriteIndex: 46
      m_TileMatrixIndex: 0
      m_TileColorIndex: 0
      m_TileObjectToInstantiateIndex: 65535
      dummyAlignment: 0
      m_AllTileFlags: 1073741825
  - first: {x: 0, y: -5, z: 0}
    second:
      serializedVersion: 2
      m_TileIndex: 47
      m_TileSpriteIndex: 47
      m_TileMatrixIndex: 0
      m_TileColorIndex: 0
      m_TileObjectToInstantiateIndex: 65535
      dummyAlignment: 0
      m_AllTileFlags: 1073741825
  - first: {x: 1, y: -5, z: 0}
    second:
      serializedVersion: 2
      m_TileIndex: 48
      m_TileSpriteIndex: 48
      m_TileMatrixIndex: 0
      m_TileColorIndex: 0
      m_TileObjectToInstantiateIndex: 65535
      dummyAlignment: 0
      m_AllTileFlags: 1073741825
  - first: {x: 2, y: -5, z: 0}
    second:
      serializedVersion: 2
      m_TileIndex: 49
      m_TileSpriteIndex: 49
      m_TileMatrixIndex: 0
      m_TileColorIndex: 0
      m_TileObjectToInstantiateIndex: 65535
      dummyAlignment: 0
      m_AllTileFlags: 1073741825
  - first: {x: 3, y: -5, z: 0}
    second:
      serializedVersion: 2
      m_TileIndex: 50
      m_TileSpriteIndex: 50
      m_TileMatrixIndex: 0
      m_TileColorIndex: 0
      m_TileObjectToInstantiateIndex: 65535
      dummyAlignment: 0
      m_AllTileFlags: 1073741825
  - first: {x: 5, y: -5, z: 0}
    second:
      serializedVersion: 2
      m_TileIndex: 51
      m_TileSpriteIndex: 51
      m_TileMatrixIndex: 0
      m_TileColorIndex: 0
      m_TileObjectToInstantiateIndex: 65535
      dummyAlignment: 0
      m_AllTileFlags: 1073741825
  - first: {x: 6, y: -5, z: 0}
    second:
      serializedVersion: 2
      m_TileIndex: 52
      m_TileSpriteIndex: 52
      m_TileMatrixIndex: 0
      m_TileColorIndex: 0
      m_TileObjectToInstantiateIndex: 65535
      dummyAlignment: 0
      m_AllTileFlags: 1073741825
  - first: {x: 7, y: -5, z: 0}
    second:
      serializedVersion: 2
      m_TileIndex: 53
      m_TileSpriteIndex: 53
      m_TileMatrixIndex: 0
      m_TileColorIndex: 0
      m_TileObjectToInstantiateIndex: 65535
      dummyAlignment: 0
      m_AllTileFlags: 1073741825
  - first: {x: 8, y: -5, z: 0}
    second:
      serializedVersion: 2
      m_TileIndex: 54
      m_TileSpriteIndex: 54
      m_TileMatrixIndex: 0
      m_TileColorIndex: 0
      m_TileObjectToInstantiateIndex: 65535
      dummyAlignment: 0
      m_AllTileFlags: 1073741825
  - first: {x: 9, y: -5, z: 0}
    second:
      serializedVersion: 2
      m_TileIndex: 55
      m_TileSpriteIndex: 55
      m_TileMatrixIndex: 0
      m_TileColorIndex: 0
      m_TileObjectToInstantiateIndex: 65535
      dummyAlignment: 0
      m_AllTileFlags: 1073741825
  - first: {x: 11, y: -5, z: 0}
    second:
      serializedVersion: 2
      m_TileIndex: 56
      m_TileSpriteIndex: 56
      m_TileMatrixIndex: 0
      m_TileColorIndex: 0
      m_TileObjectToInstantiateIndex: 65535
      dummyAlignment: 0
      m_AllTileFlags: 1073741825
  - first: {x: 12, y: -5, z: 0}
    second:
      serializedVersion: 2
      m_TileIndex: 57
      m_TileSpriteIndex: 57
      m_TileMatrixIndex: 0
      m_TileColorIndex: 0
      m_TileObjectToInstantiateIndex: 65535
      dummyAlignment: 0
      m_AllTileFlags: 1073741825
  - first: {x: 13, y: -5, z: 0}
    second:
      serializedVersion: 2
      m_TileIndex: 58
      m_TileSpriteIndex: 58
      m_TileMatrixIndex: 0
      m_TileColorIndex: 0
      m_TileObjectToInstantiateIndex: 65535
      dummyAlignment: 0
      m_AllTileFlags: 1073741825
  - first: {x: 14, y: -5, z: 0}
    second:
      serializedVersion: 2
      m_TileIndex: 59
      m_TileSpriteIndex: 59
      m_TileMatrixIndex: 0
      m_TileColorIndex: 0
      m_TileObjectToInstantiateIndex: 65535
      dummyAlignment: 0
      m_AllTileFlags: 1073741825
  - first: {x: 16, y: -5, z: 0}
    second:
      serializedVersion: 2
      m_TileIndex: 60
      m_TileSpriteIndex: 60
      m_TileMatrixIndex: 0
      m_TileColorIndex: 0
      m_TileObjectToInstantiateIndex: 65535
      dummyAlignment: 0
      m_AllTileFlags: 1073741825
  - first: {x: 17, y: -5, z: 0}
    second:
      serializedVersion: 2
      m_TileIndex: 61
      m_TileSpriteIndex: 61
      m_TileMatrixIndex: 0
      m_TileColorIndex: 0
      m_TileObjectToInstantiateIndex: 65535
      dummyAlignment: 0
      m_AllTileFlags: 1073741825
  - first: {x: 18, y: -5, z: 0}
    second:
      serializedVersion: 2
      m_TileIndex: 62
      m_TileSpriteIndex: 62
      m_TileMatrixIndex: 0
      m_TileColorIndex: 0
      m_TileObjectToInstantiateIndex: 65535
      dummyAlignment: 0
      m_AllTileFlags: 1073741825
  - first: {x: 19, y: -5, z: 0}
    second:
      serializedVersion: 2
      m_TileIndex: 63
      m_TileSpriteIndex: 63
      m_TileMatrixIndex: 0
      m_TileColorIndex: 0
      m_TileObjectToInstantiateIndex: 65535
      dummyAlignment: 0
      m_AllTileFlags: 1073741825
  - first: {x: 20, y: -5, z: 0}
    second:
      serializedVersion: 2
      m_TileIndex: 64
      m_TileSpriteIndex: 64
      m_TileMatrixIndex: 0
      m_TileColorIndex: 0
      m_TileObjectToInstantiateIndex: 65535
      dummyAlignment: 0
      m_AllTileFlags: 1073741825
  - first: {x: -1, y: -3, z: 0}
    second:
      serializedVersion: 2
      m_TileIndex: 34
      m_TileSpriteIndex: 34
      m_TileMatrixIndex: 0
      m_TileColorIndex: 0
      m_TileObjectToInstantiateIndex: 65535
      dummyAlignment: 0
      m_AllTileFlags: 1073741825
  - first: {x: 0, y: -3, z: 0}
    second:
      serializedVersion: 2
      m_TileIndex: 35
      m_TileSpriteIndex: 35
      m_TileMatrixIndex: 0
      m_TileColorIndex: 0
      m_TileObjectToInstantiateIndex: 65535
      dummyAlignment: 0
      m_AllTileFlags: 1073741825
  - first: {x: 1, y: -3, z: 0}
    second:
      serializedVersion: 2
      m_TileIndex: 36
      m_TileSpriteIndex: 36
      m_TileMatrixIndex: 0
      m_TileColorIndex: 0
      m_TileObjectToInstantiateIndex: 65535
      dummyAlignment: 0
      m_AllTileFlags: 1073741825
  - first: {x: 5, y: -3, z: 0}
    second:
      serializedVersion: 2
      m_TileIndex: 37
      m_TileSpriteIndex: 37
      m_TileMatrixIndex: 0
      m_TileColorIndex: 0
      m_TileObjectToInstantiateIndex: 65535
      dummyAlignment: 0
      m_AllTileFlags: 1073741825
  - first: {x: 6, y: -3, z: 0}
    second:
      serializedVersion: 2
      m_TileIndex: 38
      m_TileSpriteIndex: 38
      m_TileMatrixIndex: 0
      m_TileColorIndex: 0
      m_TileObjectToInstantiateIndex: 65535
      dummyAlignment: 0
      m_AllTileFlags: 1073741825
  - first: {x: 7, y: -3, z: 0}
    second:
      serializedVersion: 2
      m_TileIndex: 39
      m_TileSpriteIndex: 39
      m_TileMatrixIndex: 0
      m_TileColorIndex: 0
      m_TileObjectToInstantiateIndex: 65535
      dummyAlignment: 0
      m_AllTileFlags: 1073741825
  - first: {x: 12, y: -3, z: 0}
    second:
      serializedVersion: 2
      m_TileIndex: 40
      m_TileSpriteIndex: 40
      m_TileMatrixIndex: 0
      m_TileColorIndex: 0
      m_TileObjectToInstantiateIndex: 65535
      dummyAlignment: 0
      m_AllTileFlags: 1073741825
  - first: {x: 13, y: -3, z: 0}
    second:
      serializedVersion: 2
      m_TileIndex: 41
      m_TileSpriteIndex: 41
      m_TileMatrixIndex: 0
      m_TileColorIndex: 0
      m_TileObjectToInstantiateIndex: 65535
      dummyAlignment: 0
      m_AllTileFlags: 1073741825
  - first: {x: 14, y: -3, z: 0}
    second:
      serializedVersion: 2
      m_TileIndex: 42
      m_TileSpriteIndex: 42
      m_TileMatrixIndex: 0
      m_TileColorIndex: 0
      m_TileObjectToInstantiateIndex: 65535
      dummyAlignment: 0
      m_AllTileFlags: 1073741825
  - first: {x: 16, y: -3, z: 0}
    second:
      serializedVersion: 2
      m_TileIndex: 43
      m_TileSpriteIndex: 43
      m_TileMatrixIndex: 0
      m_TileColorIndex: 0
      m_TileObjectToInstantiateIndex: 65535
      dummyAlignment: 0
      m_AllTileFlags: 1073741825
  - first: {x: 17, y: -3, z: 0}
    second:
      serializedVersion: 2
      m_TileIndex: 44
      m_TileSpriteIndex: 44
      m_TileMatrixIndex: 0
      m_TileColorIndex: 0
      m_TileObjectToInstantiateIndex: 65535
      dummyAlignment: 0
      m_AllTileFlags: 1073741825
  - first: {x: 18, y: -3, z: 0}
    second:
      serializedVersion: 2
      m_TileIndex: 45
      m_TileSpriteIndex: 45
      m_TileMatrixIndex: 0
      m_TileColorIndex: 0
      m_TileObjectToInstantiateIndex: 65535
      dummyAlignment: 0
      m_AllTileFlags: 1073741825
  - first: {x: -1, y: -2, z: 0}
    second:
      serializedVersion: 2
      m_TileIndex: 17
      m_TileSpriteIndex: 17
      m_TileMatrixIndex: 0
      m_TileColorIndex: 0
      m_TileObjectToInstantiateIndex: 65535
      dummyAlignment: 0
      m_AllTileFlags: 1073741825
  - first: {x: 0, y: -2, z: 0}
    second:
      serializedVersion: 2
      m_TileIndex: 18
      m_TileSpriteIndex: 18
      m_TileMatrixIndex: 0
      m_TileColorIndex: 0
      m_TileObjectToInstantiateIndex: 65535
      dummyAlignment: 0
      m_AllTileFlags: 1073741825
  - first: {x: 1, y: -2, z: 0}
    second:
      serializedVersion: 2
      m_TileIndex: 19
      m_TileSpriteIndex: 19
      m_TileMatrixIndex: 0
      m_TileColorIndex: 0
      m_TileObjectToInstantiateIndex: 65535
      dummyAlignment: 0
      m_AllTileFlags: 1073741825
  - first: {x: 2, y: -2, z: 0}
    second:
      serializedVersion: 2
      m_TileIndex: 20
      m_TileSpriteIndex: 20
      m_TileMatrixIndex: 0
      m_TileColorIndex: 0
      m_TileObjectToInstantiateIndex: 65535
      dummyAlignment: 0
      m_AllTileFlags: 1073741825
  - first: {x: 3, y: -2, z: 0}
    second:
      serializedVersion: 2
      m_TileIndex: 21
      m_TileSpriteIndex: 21
      m_TileMatrixIndex: 0
      m_TileColorIndex: 0
      m_TileObjectToInstantiateIndex: 65535
      dummyAlignment: 0
      m_AllTileFlags: 1073741825
  - first: {x: 5, y: -2, z: 0}
    second:
      serializedVersion: 2
      m_TileIndex: 22
      m_TileSpriteIndex: 22
      m_TileMatrixIndex: 0
      m_TileColorIndex: 0
      m_TileObjectToInstantiateIndex: 65535
      dummyAlignment: 0
      m_AllTileFlags: 1073741825
  - first: {x: 6, y: -2, z: 0}
    second:
      serializedVersion: 2
      m_TileIndex: 23
      m_TileSpriteIndex: 23
      m_TileMatrixIndex: 0
      m_TileColorIndex: 0
      m_TileObjectToInstantiateIndex: 65535
      dummyAlignment: 0
      m_AllTileFlags: 1073741825
  - first: {x: 7, y: -2, z: 0}
    second:
      serializedVersion: 2
      m_TileIndex: 24
      m_TileSpriteIndex: 24
      m_TileMatrixIndex: 0
      m_TileColorIndex: 0
      m_TileObjectToInstantiateIndex: 65535
      dummyAlignment: 0
      m_AllTileFlags: 1073741825
  - first: {x: 8, y: -2, z: 0}
    second:
      serializedVersion: 2
      m_TileIndex: 25
      m_TileSpriteIndex: 25
      m_TileMatrixIndex: 0
      m_TileColorIndex: 0
      m_TileObjectToInstantiateIndex: 65535
      dummyAlignment: 0
      m_AllTileFlags: 1073741825
  - first: {x: 9, y: -2, z: 0}
    second:
      serializedVersion: 2
      m_TileIndex: 26
      m_TileSpriteIndex: 26
      m_TileMatrixIndex: 0
      m_TileColorIndex: 0
      m_TileObjectToInstantiateIndex: 65535
      dummyAlignment: 0
      m_AllTileFlags: 1073741825
  - first: {x: 11, y: -2, z: 0}
    second:
      serializedVersion: 2
      m_TileIndex: 27
      m_TileSpriteIndex: 27
      m_TileMatrixIndex: 0
      m_TileColorIndex: 0
      m_TileObjectToInstantiateIndex: 65535
      dummyAlignment: 0
      m_AllTileFlags: 1073741825
  - first: {x: 12, y: -2, z: 0}
    second:
      serializedVersion: 2
      m_TileIndex: 28
      m_TileSpriteIndex: 28
      m_TileMatrixIndex: 0
      m_TileColorIndex: 0
      m_TileObjectToInstantiateIndex: 65535
      dummyAlignment: 0
      m_AllTileFlags: 1073741825
  - first: {x: 13, y: -2, z: 0}
    second:
      serializedVersion: 2
      m_TileIndex: 29
      m_TileSpriteIndex: 29
      m_TileMatrixIndex: 0
      m_TileColorIndex: 0
      m_TileObjectToInstantiateIndex: 65535
      dummyAlignment: 0
      m_AllTileFlags: 1073741825
  - first: {x: 14, y: -2, z: 0}
    second:
      serializedVersion: 2
      m_TileIndex: 30
      m_TileSpriteIndex: 30
      m_TileMatrixIndex: 0
      m_TileColorIndex: 0
      m_TileObjectToInstantiateIndex: 65535
      dummyAlignment: 0
      m_AllTileFlags: 1073741825
  - first: {x: 16, y: -2, z: 0}
    second:
      serializedVersion: 2
      m_TileIndex: 31
      m_TileSpriteIndex: 31
      m_TileMatrixIndex: 0
      m_TileColorIndex: 0
      m_TileObjectToInstantiateIndex: 65535
      dummyAlignment: 0
      m_AllTileFlags: 1073741825
  - first: {x: 17, y: -2, z: 0}
    second:
      serializedVersion: 2
      m_TileIndex: 32
      m_TileSpriteIndex: 32
      m_TileMatrixIndex: 0
      m_TileColorIndex: 0
      m_TileObjectToInstantiateIndex: 65535
      dummyAlignment: 0
      m_AllTileFlags: 1073741825
  - first: {x: 18, y: -2, z: 0}
    second:
      serializedVersion: 2
      m_TileIndex: 33
      m_TileSpriteIndex: 33
      m_TileMatrixIndex: 0
      m_TileColorIndex: 0
      m_TileObjectToInstantiateIndex: 65535
      dummyAlignment: 0
      m_AllTileFlags: 1073741825
  - first: {x: -1, y: -1, z: 0}
    second:
      serializedVersion: 2
      m_TileIndex: 0
      m_TileSpriteIndex: 0
      m_TileMatrixIndex: 0
      m_TileColorIndex: 0
      m_TileObjectToInstantiateIndex: 65535
      dummyAlignment: 0
      m_AllTileFlags: 1073741825
  - first: {x: 0, y: -1, z: 0}
    second:
      serializedVersion: 2
      m_TileIndex: 1
      m_TileSpriteIndex: 1
      m_TileMatrixIndex: 0
      m_TileColorIndex: 0
      m_TileObjectToInstantiateIndex: 65535
      dummyAlignment: 0
      m_AllTileFlags: 1073741825
  - first: {x: 1, y: -1, z: 0}
    second:
      serializedVersion: 2
      m_TileIndex: 2
      m_TileSpriteIndex: 2
      m_TileMatrixIndex: 0
      m_TileColorIndex: 0
      m_TileObjectToInstantiateIndex: 65535
      dummyAlignment: 0
      m_AllTileFlags: 1073741825
  - first: {x: 2, y: -1, z: 0}
    second:
      serializedVersion: 2
      m_TileIndex: 3
      m_TileSpriteIndex: 3
      m_TileMatrixIndex: 0
      m_TileColorIndex: 0
      m_TileObjectToInstantiateIndex: 65535
      dummyAlignment: 0
      m_AllTileFlags: 1073741825
  - first: {x: 3, y: -1, z: 0}
    second:
      serializedVersion: 2
      m_TileIndex: 4
      m_TileSpriteIndex: 4
      m_TileMatrixIndex: 0
      m_TileColorIndex: 0
      m_TileObjectToInstantiateIndex: 65535
      dummyAlignment: 0
      m_AllTileFlags: 1073741825
  - first: {x: 5, y: -1, z: 0}
    second:
      serializedVersion: 2
      m_TileIndex: 5
      m_TileSpriteIndex: 5
      m_TileMatrixIndex: 0
      m_TileColorIndex: 0
      m_TileObjectToInstantiateIndex: 65535
      dummyAlignment: 0
      m_AllTileFlags: 1073741825
  - first: {x: 6, y: -1, z: 0}
    second:
      serializedVersion: 2
      m_TileIndex: 6
      m_TileSpriteIndex: 6
      m_TileMatrixIndex: 0
      m_TileColorIndex: 0
      m_TileObjectToInstantiateIndex: 65535
      dummyAlignment: 0
      m_AllTileFlags: 1073741825
  - first: {x: 7, y: -1, z: 0}
    second:
      serializedVersion: 2
      m_TileIndex: 7
      m_TileSpriteIndex: 7
      m_TileMatrixIndex: 0
      m_TileColorIndex: 0
      m_TileObjectToInstantiateIndex: 65535
      dummyAlignment: 0
      m_AllTileFlags: 1073741825
  - first: {x: 8, y: -1, z: 0}
    second:
      serializedVersion: 2
      m_TileIndex: 8
      m_TileSpriteIndex: 8
      m_TileMatrixIndex: 0
      m_TileColorIndex: 0
      m_TileObjectToInstantiateIndex: 65535
      dummyAlignment: 0
      m_AllTileFlags: 1073741825
  - first: {x: 9, y: -1, z: 0}
    second:
      serializedVersion: 2
      m_TileIndex: 9
      m_TileSpriteIndex: 9
      m_TileMatrixIndex: 0
      m_TileColorIndex: 0
      m_TileObjectToInstantiateIndex: 65535
      dummyAlignment: 0
      m_AllTileFlags: 1073741825
  - first: {x: 11, y: -1, z: 0}
    second:
      serializedVersion: 2
      m_TileIndex: 10
      m_TileSpriteIndex: 10
      m_TileMatrixIndex: 0
      m_TileColorIndex: 0
      m_TileObjectToInstantiateIndex: 65535
      dummyAlignment: 0
      m_AllTileFlags: 1073741825
  - first: {x: 12, y: -1, z: 0}
    second:
      serializedVersion: 2
      m_TileIndex: 11
      m_TileSpriteIndex: 11
      m_TileMatrixIndex: 0
      m_TileColorIndex: 0
      m_TileObjectToInstantiateIndex: 65535
      dummyAlignment: 0
      m_AllTileFlags: 1073741825
  - first: {x: 13, y: -1, z: 0}
    second:
      serializedVersion: 2
      m_TileIndex: 12
      m_TileSpriteIndex: 12
      m_TileMatrixIndex: 0
      m_TileColorIndex: 0
      m_TileObjectToInstantiateIndex: 65535
      dummyAlignment: 0
      m_AllTileFlags: 1073741825
  - first: {x: 14, y: -1, z: 0}
    second:
      serializedVersion: 2
      m_TileIndex: 13
      m_TileSpriteIndex: 13
      m_TileMatrixIndex: 0
      m_TileColorIndex: 0
      m_TileObjectToInstantiateIndex: 65535
      dummyAlignment: 0
      m_AllTileFlags: 1073741825
  - first: {x: 16, y: -1, z: 0}
    second:
      serializedVersion: 2
      m_TileIndex: 14
      m_TileSpriteIndex: 14
      m_TileMatrixIndex: 0
      m_TileColorIndex: 0
      m_TileObjectToInstantiateIndex: 65535
      dummyAlignment: 0
      m_AllTileFlags: 1073741825
  - first: {x: 17, y: -1, z: 0}
    second:
      serializedVersion: 2
      m_TileIndex: 15
      m_TileSpriteIndex: 15
      m_TileMatrixIndex: 0
      m_TileColorIndex: 0
      m_TileObjectToInstantiateIndex: 65535
      dummyAlignment: 0
      m_AllTileFlags: 1073741825
  - first: {x: 18, y: -1, z: 0}
    second:
      serializedVersion: 2
      m_TileIndex: 16
      m_TileSpriteIndex: 16
      m_TileMatrixIndex: 0
      m_TileColorIndex: 0
      m_TileObjectToInstantiateIndex: 65535
      dummyAlignment: 0
      m_AllTileFlags: 1073741825
  - first: {x: -1, y: 1, z: 0}
    second:
      serializedVersion: 2
      m_TileIndex: 156
      m_TileSpriteIndex: 156
      m_TileMatrixIndex: 0
      m_TileColorIndex: 0
      m_TileObjectToInstantiateIndex: 65535
      dummyAlignment: 0
      m_AllTileFlags: 1073741825
  - first: {x: 0, y: 1, z: 0}
    second:
      serializedVersion: 2
      m_TileIndex: 157
      m_TileSpriteIndex: 157
      m_TileMatrixIndex: 0
      m_TileColorIndex: 0
      m_TileObjectToInstantiateIndex: 65535
      dummyAlignment: 0
      m_AllTileFlags: 1073741825
  - first: {x: 1, y: 1, z: 0}
    second:
      serializedVersion: 2
      m_TileIndex: 158
      m_TileSpriteIndex: 158
      m_TileMatrixIndex: 0
      m_TileColorIndex: 0
      m_TileObjectToInstantiateIndex: 65535
      dummyAlignment: 0
      m_AllTileFlags: 1073741825
  - first: {x: 2, y: 1, z: 0}
    second:
      serializedVersion: 2
      m_TileIndex: 159
      m_TileSpriteIndex: 159
      m_TileMatrixIndex: 0
      m_TileColorIndex: 0
      m_TileObjectToInstantiateIndex: 65535
      dummyAlignment: 0
      m_AllTileFlags: 1073741825
  - first: {x: 5, y: 1, z: 0}
    second:
      serializedVersion: 2
      m_TileIndex: 172
      m_TileSpriteIndex: 172
      m_TileMatrixIndex: 0
      m_TileColorIndex: 0
      m_TileObjectToInstantiateIndex: 65535
      dummyAlignment: 0
      m_AllTileFlags: 1073741825
  - first: {x: 6, y: 1, z: 0}
    second:
      serializedVersion: 2
      m_TileIndex: 173
      m_TileSpriteIndex: 173
      m_TileMatrixIndex: 0
      m_TileColorIndex: 0
      m_TileObjectToInstantiateIndex: 65535
      dummyAlignment: 0
      m_AllTileFlags: 1073741825
  - first: {x: 7, y: 1, z: 0}
    second:
      serializedVersion: 2
      m_TileIndex: 174
      m_TileSpriteIndex: 174
      m_TileMatrixIndex: 0
      m_TileColorIndex: 0
      m_TileObjectToInstantiateIndex: 65535
      dummyAlignment: 0
      m_AllTileFlags: 1073741825
  - first: {x: 8, y: 1, z: 0}
    second:
      serializedVersion: 2
      m_TileIndex: 175
      m_TileSpriteIndex: 175
      m_TileMatrixIndex: 0
      m_TileColorIndex: 0
      m_TileObjectToInstantiateIndex: 65535
      dummyAlignment: 0
      m_AllTileFlags: 1073741825
  - first: {x: -1, y: 2, z: 0}
    second:
      serializedVersion: 2
      m_TileIndex: 152
      m_TileSpriteIndex: 152
      m_TileMatrixIndex: 0
      m_TileColorIndex: 0
      m_TileObjectToInstantiateIndex: 65535
      dummyAlignment: 0
      m_AllTileFlags: 1073741825
  - first: {x: 0, y: 2, z: 0}
    second:
      serializedVersion: 2
      m_TileIndex: 153
      m_TileSpriteIndex: 153
      m_TileMatrixIndex: 0
      m_TileColorIndex: 0
      m_TileObjectToInstantiateIndex: 65535
      dummyAlignment: 0
      m_AllTileFlags: 1073741825
  - first: {x: 1, y: 2, z: 0}
    second:
      serializedVersion: 2
      m_TileIndex: 154
      m_TileSpriteIndex: 154
      m_TileMatrixIndex: 0
      m_TileColorIndex: 0
      m_TileObjectToInstantiateIndex: 65535
      dummyAlignment: 0
      m_AllTileFlags: 1073741825
  - first: {x: 2, y: 2, z: 0}
    second:
      serializedVersion: 2
      m_TileIndex: 155
      m_TileSpriteIndex: 155
      m_TileMatrixIndex: 0
      m_TileColorIndex: 0
      m_TileObjectToInstantiateIndex: 65535
      dummyAlignment: 0
      m_AllTileFlags: 1073741825
  - first: {x: 5, y: 2, z: 0}
    second:
      serializedVersion: 2
      m_TileIndex: 168
      m_TileSpriteIndex: 168
      m_TileMatrixIndex: 0
      m_TileColorIndex: 0
      m_TileObjectToInstantiateIndex: 65535
      dummyAlignment: 0
      m_AllTileFlags: 1073741825
  - first: {x: 6, y: 2, z: 0}
    second:
      serializedVersion: 2
      m_TileIndex: 169
      m_TileSpriteIndex: 169
      m_TileMatrixIndex: 0
      m_TileColorIndex: 0
      m_TileObjectToInstantiateIndex: 65535
      dummyAlignment: 0
      m_AllTileFlags: 1073741825
  - first: {x: 7, y: 2, z: 0}
    second:
      serializedVersion: 2
      m_TileIndex: 170
      m_TileSpriteIndex: 170
      m_TileMatrixIndex: 0
      m_TileColorIndex: 0
      m_TileObjectToInstantiateIndex: 65535
      dummyAlignment: 0
      m_AllTileFlags: 1073741825
  - first: {x: 8, y: 2, z: 0}
    second:
      serializedVersion: 2
      m_TileIndex: 171
      m_TileSpriteIndex: 171
      m_TileMatrixIndex: 0
      m_TileColorIndex: 0
      m_TileObjectToInstantiateIndex: 65535
      dummyAlignment: 0
      m_AllTileFlags: 1073741825
  - first: {x: -1, y: 3, z: 0}
    second:
      serializedVersion: 2
      m_TileIndex: 148
      m_TileSpriteIndex: 148
      m_TileMatrixIndex: 0
      m_TileColorIndex: 0
      m_TileObjectToInstantiateIndex: 65535
      dummyAlignment: 0
      m_AllTileFlags: 1073741825
  - first: {x: 0, y: 3, z: 0}
    second:
      serializedVersion: 2
      m_TileIndex: 149
      m_TileSpriteIndex: 149
      m_TileMatrixIndex: 0
      m_TileColorIndex: 0
      m_TileObjectToInstantiateIndex: 65535
      dummyAlignment: 0
      m_AllTileFlags: 1073741825
  - first: {x: 1, y: 3, z: 0}
    second:
      serializedVersion: 2
      m_TileIndex: 150
      m_TileSpriteIndex: 150
      m_TileMatrixIndex: 0
      m_TileColorIndex: 0
      m_TileObjectToInstantiateIndex: 65535
      dummyAlignment: 0
      m_AllTileFlags: 1073741825
  - first: {x: 2, y: 3, z: 0}
    second:
      serializedVersion: 2
      m_TileIndex: 151
      m_TileSpriteIndex: 151
      m_TileMatrixIndex: 0
      m_TileColorIndex: 0
      m_TileObjectToInstantiateIndex: 65535
      dummyAlignment: 0
      m_AllTileFlags: 1073741825
  - first: {x: 5, y: 3, z: 0}
    second:
      serializedVersion: 2
      m_TileIndex: 164
      m_TileSpriteIndex: 164
      m_TileMatrixIndex: 0
      m_TileColorIndex: 0
      m_TileObjectToInstantiateIndex: 65535
      dummyAlignment: 0
      m_AllTileFlags: 1073741825
  - first: {x: 6, y: 3, z: 0}
    second:
      serializedVersion: 2
      m_TileIndex: 165
      m_TileSpriteIndex: 165
      m_TileMatrixIndex: 0
      m_TileColorIndex: 0
      m_TileObjectToInstantiateIndex: 65535
      dummyAlignment: 0
      m_AllTileFlags: 1073741825
  - first: {x: 7, y: 3, z: 0}
    second:
      serializedVersion: 2
      m_TileIndex: 166
      m_TileSpriteIndex: 166
      m_TileMatrixIndex: 0
      m_TileColorIndex: 0
      m_TileObjectToInstantiateIndex: 65535
      dummyAlignment: 0
      m_AllTileFlags: 1073741825
  - first: {x: 8, y: 3, z: 0}
    second:
      serializedVersion: 2
      m_TileIndex: 167
      m_TileSpriteIndex: 167
      m_TileMatrixIndex: 0
      m_TileColorIndex: 0
      m_TileObjectToInstantiateIndex: 65535
      dummyAlignment: 0
      m_AllTileFlags: 1073741825
  - first: {x: -1, y: 4, z: 0}
    second:
      serializedVersion: 2
      m_TileIndex: 144
      m_TileSpriteIndex: 144
      m_TileMatrixIndex: 0
      m_TileColorIndex: 0
      m_TileObjectToInstantiateIndex: 65535
      dummyAlignment: 0
      m_AllTileFlags: 1073741825
  - first: {x: 0, y: 4, z: 0}
    second:
      serializedVersion: 2
      m_TileIndex: 145
      m_TileSpriteIndex: 145
      m_TileMatrixIndex: 0
      m_TileColorIndex: 0
      m_TileObjectToInstantiateIndex: 65535
      dummyAlignment: 0
      m_AllTileFlags: 1073741825
  - first: {x: 1, y: 4, z: 0}
    second:
      serializedVersion: 2
      m_TileIndex: 146
      m_TileSpriteIndex: 146
      m_TileMatrixIndex: 0
      m_TileColorIndex: 0
      m_TileObjectToInstantiateIndex: 65535
      dummyAlignment: 0
      m_AllTileFlags: 1073741825
  - first: {x: 2, y: 4, z: 0}
    second:
      serializedVersion: 2
      m_TileIndex: 147
      m_TileSpriteIndex: 147
      m_TileMatrixIndex: 0
      m_TileColorIndex: 0
      m_TileObjectToInstantiateIndex: 65535
      dummyAlignment: 0
      m_AllTileFlags: 1073741825
  - first: {x: 5, y: 4, z: 0}
    second:
      serializedVersion: 2
      m_TileIndex: 160
      m_TileSpriteIndex: 160
      m_TileMatrixIndex: 0
      m_TileColorIndex: 0
      m_TileObjectToInstantiateIndex: 65535
      dummyAlignment: 0
      m_AllTileFlags: 1073741825
  - first: {x: 6, y: 4, z: 0}
    second:
      serializedVersion: 2
      m_TileIndex: 161
      m_TileSpriteIndex: 161
      m_TileMatrixIndex: 0
      m_TileColorIndex: 0
      m_TileObjectToInstantiateIndex: 65535
      dummyAlignment: 0
      m_AllTileFlags: 1073741825
  - first: {x: 7, y: 4, z: 0}
    second:
      serializedVersion: 2
      m_TileIndex: 162
      m_TileSpriteIndex: 162
      m_TileMatrixIndex: 0
      m_TileColorIndex: 0
      m_TileObjectToInstantiateIndex: 65535
      dummyAlignment: 0
      m_AllTileFlags: 1073741825
  - first: {x: 8, y: 4, z: 0}
    second:
      serializedVersion: 2
      m_TileIndex: 163
      m_TileSpriteIndex: 163
      m_TileMatrixIndex: 0
      m_TileColorIndex: 0
      m_TileObjectToInstantiateIndex: 65535
      dummyAlignment: 0
      m_AllTileFlags: 1073741825
  m_AnimatedTiles: {}
  m_TileAssetArray:
  - m_RefCount: 1
    m_Data: {fileID: 11400000, guid: 06171ff35517ce9439c5a5758ac6504a, type: 2}
  - m_RefCount: 1
    m_Data: {fileID: 11400000, guid: 8715a6540c6e53d43b06bbbed4dd3a55, type: 2}
  - m_RefCount: 1
    m_Data: {fileID: 11400000, guid: 9e858f249d63a2643b9602639147b09c, type: 2}
  - m_RefCount: 1
    m_Data: {fileID: 11400000, guid: ccea2970cbd258b4bb14aec6820b916a, type: 2}
  - m_RefCount: 1
    m_Data: {fileID: 11400000, guid: 54ec029103700e94d99b4788a7b2f0e8, type: 2}
  - m_RefCount: 1
    m_Data: {fileID: 11400000, guid: fe4bb05538349fb4ca69f92fb9c358a3, type: 2}
  - m_RefCount: 1
    m_Data: {fileID: 11400000, guid: 3da694e8923dfed4bb0b638744b01076, type: 2}
  - m_RefCount: 1
    m_Data: {fileID: 11400000, guid: c0ef8f28da0bc464aa9e5dee1717c195, type: 2}
  - m_RefCount: 1
    m_Data: {fileID: 11400000, guid: 0189be8006224d04e929eb8423fbd4c7, type: 2}
  - m_RefCount: 1
    m_Data: {fileID: 11400000, guid: ebe2fed884109504ca1509e7633a75bd, type: 2}
  - m_RefCount: 1
    m_Data: {fileID: 11400000, guid: 54d74f44f28bc7749b8695e5636f9078, type: 2}
  - m_RefCount: 1
    m_Data: {fileID: 11400000, guid: 90d821b95e2d32d4bbb39a4683dc0634, type: 2}
  - m_RefCount: 1
    m_Data: {fileID: 11400000, guid: e42909d7dd98a474ba8201833d08c4e3, type: 2}
  - m_RefCount: 1
    m_Data: {fileID: 11400000, guid: c15c59c9e6ff6754885b6cd087fe1185, type: 2}
  - m_RefCount: 1
    m_Data: {fileID: 11400000, guid: a3cfa0270c6bbc844a3a93e7e9525537, type: 2}
  - m_RefCount: 1
    m_Data: {fileID: 11400000, guid: 2979c717323870c4692ae0615bc37a6e, type: 2}
  - m_RefCount: 1
    m_Data: {fileID: 11400000, guid: cb8cf610a72036e4f845e435e8d7a430, type: 2}
  - m_RefCount: 1
    m_Data: {fileID: 11400000, guid: 2e0242a5e4b555c4882b66ed09bc7240, type: 2}
  - m_RefCount: 1
    m_Data: {fileID: 11400000, guid: c96ab9bf74f258d40b9b3a16d7b38356, type: 2}
  - m_RefCount: 1
    m_Data: {fileID: 11400000, guid: 4058d95472d05dd4492047a36f32f221, type: 2}
  - m_RefCount: 1
    m_Data: {fileID: 11400000, guid: 321de50a088f4af46a56335868e77db6, type: 2}
  - m_RefCount: 1
    m_Data: {fileID: 11400000, guid: 2e7d64b3c14be8f4d97349da3b9bdb10, type: 2}
  - m_RefCount: 1
    m_Data: {fileID: 11400000, guid: f876fa233f861f94cad4336dbf8787a1, type: 2}
  - m_RefCount: 1
    m_Data: {fileID: 11400000, guid: 5303c344f44073f4ca8a69793a2a384a, type: 2}
  - m_RefCount: 1
    m_Data: {fileID: 11400000, guid: d405a00888af1384db9a5f31315754b6, type: 2}
  - m_RefCount: 1
    m_Data: {fileID: 11400000, guid: b7cc98439618a604e8e2cb21e98f6bd3, type: 2}
  - m_RefCount: 1
    m_Data: {fileID: 11400000, guid: b0d816365b6ea1246ab175a06104b35e, type: 2}
  - m_RefCount: 1
    m_Data: {fileID: 11400000, guid: 630a8749f4e9ee64198f1756923104b8, type: 2}
  - m_RefCount: 1
    m_Data: {fileID: 11400000, guid: a628b8bb06978914c9596bcfd4192a00, type: 2}
  - m_RefCount: 1
    m_Data: {fileID: 11400000, guid: 5efefa9997edb6e48a97caf5f01a9cc8, type: 2}
  - m_RefCount: 1
    m_Data: {fileID: 11400000, guid: 17a0d996de7885a4c8b05ada3cd72132, type: 2}
  - m_RefCount: 1
    m_Data: {fileID: 11400000, guid: 68c3398801b84784593341d42e15e464, type: 2}
  - m_RefCount: 1
    m_Data: {fileID: 11400000, guid: 8cdcc6e8e9fa43a4d845f197fa258eb5, type: 2}
  - m_RefCount: 1
    m_Data: {fileID: 11400000, guid: a64daccdb2801e44fa8511baea237a19, type: 2}
  - m_RefCount: 1
    m_Data: {fileID: 11400000, guid: f96bb49c29009974fbbc8f419429d8b4, type: 2}
  - m_RefCount: 1
    m_Data: {fileID: 11400000, guid: da809a9c5ef605647838bdf82a81c225, type: 2}
  - m_RefCount: 1
    m_Data: {fileID: 11400000, guid: 0b93d2d3fd251824288bf766f1a7c14e, type: 2}
  - m_RefCount: 1
    m_Data: {fileID: 11400000, guid: f419f2a2418d81945a2ef056a23ab5ef, type: 2}
  - m_RefCount: 1
    m_Data: {fileID: 11400000, guid: 4455c4f914a812b4fb0f77bf41f04506, type: 2}
  - m_RefCount: 1
    m_Data: {fileID: 11400000, guid: 6743f791082847c48b660d943677a8cf, type: 2}
  - m_RefCount: 1
    m_Data: {fileID: 11400000, guid: a67df6e6c4c2185478ecf523d4735733, type: 2}
  - m_RefCount: 1
    m_Data: {fileID: 11400000, guid: 75ac6e0163d81c0428f1a1e9862ec446, type: 2}
  - m_RefCount: 1
    m_Data: {fileID: 11400000, guid: 9113bcbb11f4da74481749b2458fe275, type: 2}
  - m_RefCount: 1
    m_Data: {fileID: 11400000, guid: 24fe772ff32b6b748bebc61eb3464a66, type: 2}
  - m_RefCount: 1
    m_Data: {fileID: 11400000, guid: 73e06598d43dac647a3205fad8fddb12, type: 2}
  - m_RefCount: 1
    m_Data: {fileID: 11400000, guid: 17ab8fc1d077c714bb677089599e2854, type: 2}
  - m_RefCount: 1
    m_Data: {fileID: 11400000, guid: eb735e863dd3f2444bfde21c7b0e6431, type: 2}
  - m_RefCount: 1
    m_Data: {fileID: 11400000, guid: 42edaa2351fbc134b8af1dca17e3c5e3, type: 2}
  - m_RefCount: 1
    m_Data: {fileID: 11400000, guid: 37afd0ba31294944b9ce1fd9c790023b, type: 2}
  - m_RefCount: 1
    m_Data: {fileID: 11400000, guid: 370252bfe970d67479187a6df1f59d87, type: 2}
  - m_RefCount: 1
    m_Data: {fileID: 11400000, guid: 3c2c33f2120462a42bc0bd7c16820062, type: 2}
  - m_RefCount: 1
    m_Data: {fileID: 11400000, guid: ca736f9ff632c0a499cb88985ef79a9d, type: 2}
  - m_RefCount: 1
    m_Data: {fileID: 11400000, guid: 097890e25a6ef44409c947a8d6844235, type: 2}
  - m_RefCount: 1
    m_Data: {fileID: 11400000, guid: 2b36cfaa67b02764e988158023749ccc, type: 2}
  - m_RefCount: 1
    m_Data: {fileID: 11400000, guid: a5f3b201fe572b24eac59085ff148929, type: 2}
  - m_RefCount: 1
    m_Data: {fileID: 11400000, guid: 3a20a143a7ea0264a8bf1a7ff8153951, type: 2}
  - m_RefCount: 1
    m_Data: {fileID: 11400000, guid: a411ef7d39045b841bc0ee2cf01e07d3, type: 2}
  - m_RefCount: 1
    m_Data: {fileID: 11400000, guid: 016b10e2f74ebff4e83dde265ca05c48, type: 2}
  - m_RefCount: 1
    m_Data: {fileID: 11400000, guid: 54db5ea52e7d28349a5fe4b4cc22e021, type: 2}
  - m_RefCount: 1
    m_Data: {fileID: 11400000, guid: 2e47e6e15fa7e4348bbd2fab44e93860, type: 2}
  - m_RefCount: 1
    m_Data: {fileID: 11400000, guid: af5b20d98f96c304a9412a419e69bf28, type: 2}
  - m_RefCount: 1
    m_Data: {fileID: 11400000, guid: 688a47b15b51f744796d3ac846c5f51c, type: 2}
  - m_RefCount: 1
    m_Data: {fileID: 11400000, guid: 051b8b900b9751a4aa2f59b0e59b0fba, type: 2}
  - m_RefCount: 1
    m_Data: {fileID: 11400000, guid: 4444e5010f907ee469f6afb4d651ac79, type: 2}
  - m_RefCount: 1
    m_Data: {fileID: 11400000, guid: ce2bd229ba788f246a5e564e7609f4aa, type: 2}
  - m_RefCount: 1
    m_Data: {fileID: 11400000, guid: 55b3c6cb877f71a4baea5fdcdeaa8f46, type: 2}
  - m_RefCount: 1
    m_Data: {fileID: 11400000, guid: 4b356e75f8934a64c8cab4c9d710df27, type: 2}
  - m_RefCount: 1
    m_Data: {fileID: 11400000, guid: 31d309fe65f1b4e4085b666e83bf20b9, type: 2}
  - m_RefCount: 1
    m_Data: {fileID: 11400000, guid: 92b3055557ebced4d910494d562d058d, type: 2}
  - m_RefCount: 1
    m_Data: {fileID: 11400000, guid: dcda66af07e951249897f31b33f68931, type: 2}
  - m_RefCount: 1
    m_Data: {fileID: 11400000, guid: 3bdb0a8f453dd434da7cef482292916f, type: 2}
  - m_RefCount: 1
    m_Data: {fileID: 11400000, guid: 3d2eeaf521865a749beb0e36fa1d0ef1, type: 2}
  - m_RefCount: 1
    m_Data: {fileID: 11400000, guid: 47d25d075b5a14c479fbec15f2a472bb, type: 2}
  - m_RefCount: 1
    m_Data: {fileID: 11400000, guid: 422faa70ccdbe764984bd3ab470f06ad, type: 2}
  - m_RefCount: 1
    m_Data: {fileID: 11400000, guid: f25f28c99587f0144b7a9a9bee363dff, type: 2}
  - m_RefCount: 1
    m_Data: {fileID: 11400000, guid: eb7f2e389ad6f2a40be23993f27ea01f, type: 2}
  - m_RefCount: 1
    m_Data: {fileID: 11400000, guid: 573a66c5c160e0a429fa9450e2f48a80, type: 2}
  - m_RefCount: 1
    m_Data: {fileID: 11400000, guid: 652dc0612f0e9a7408e7a9bb8ad914ed, type: 2}
  - m_RefCount: 1
    m_Data: {fileID: 11400000, guid: 17513c4efd316b046a7d927d72d29928, type: 2}
  - m_RefCount: 1
    m_Data: {fileID: 11400000, guid: 1f220e963a774034f8dd573df87784b1, type: 2}
  - m_RefCount: 1
    m_Data: {fileID: 11400000, guid: 402c57a5f63957146bd423df88104ee4, type: 2}
  - m_RefCount: 1
    m_Data: {fileID: 11400000, guid: bf568f6940872f547a520bd20a1bd148, type: 2}
  - m_RefCount: 1
    m_Data: {fileID: 11400000, guid: a8ffaceec35bc2a42bb767e93f4ed49b, type: 2}
  - m_RefCount: 1
    m_Data: {fileID: 11400000, guid: 2cb659f3aa6829c4daca7b3cf4f45fab, type: 2}
  - m_RefCount: 1
    m_Data: {fileID: 11400000, guid: a5f9980f644c0924aaae727fc02297f8, type: 2}
  - m_RefCount: 1
    m_Data: {fileID: 11400000, guid: 8c0bb695bfe0cf947bd5ef5615acc2c1, type: 2}
  - m_RefCount: 1
    m_Data: {fileID: 11400000, guid: 501f1eea97e0fb14b89d11ca6328e26b, type: 2}
  - m_RefCount: 1
    m_Data: {fileID: 11400000, guid: a3c91ee8828835a42a795d739508eb91, type: 2}
  - m_RefCount: 1
    m_Data: {fileID: 11400000, guid: a67a1d666c603ab40b7a52ae04682ddf, type: 2}
  - m_RefCount: 1
    m_Data: {fileID: 11400000, guid: 16105ee9bd525804ead3d49b3e57a35e, type: 2}
  - m_RefCount: 1
    m_Data: {fileID: 11400000, guid: 7d3ab39660c50014f8644991486aeed4, type: 2}
  - m_RefCount: 1
    m_Data: {fileID: 11400000, guid: 3fc9367fb8bbf7449b7513162dbf0926, type: 2}
  - m_RefCount: 1
    m_Data: {fileID: 11400000, guid: c3346dae242d720459942d9429b7124c, type: 2}
  - m_RefCount: 1
    m_Data: {fileID: 11400000, guid: 27aa86bbd050df445a542dda7cc4470c, type: 2}
  - m_RefCount: 1
    m_Data: {fileID: 11400000, guid: d9b89208c1c8afa4bad2cab86c763ee9, type: 2}
  - m_RefCount: 1
    m_Data: {fileID: 11400000, guid: 26143b67a1a7bca44aedde9a606d152b, type: 2}
  - m_RefCount: 1
    m_Data: {fileID: 11400000, guid: 859fddc0fa20a724a81cf8ce2034e6ea, type: 2}
  - m_RefCount: 1
    m_Data: {fileID: 11400000, guid: 3cf85610afbbf1f4f877fddade113289, type: 2}
  - m_RefCount: 1
    m_Data: {fileID: 11400000, guid: 4aa58921195a56247b4ca465decdd84d, type: 2}
  - m_RefCount: 1
    m_Data: {fileID: 11400000, guid: ff4f8df1694154c45b1f74123b92fd0b, type: 2}
  - m_RefCount: 1
    m_Data: {fileID: 11400000, guid: e1e47346ee45e754088b3d57af8a0049, type: 2}
  - m_RefCount: 1
    m_Data: {fileID: 11400000, guid: 8911f3b0da3a69e41a39ec5f91b9f98e, type: 2}
  - m_RefCount: 1
    m_Data: {fileID: 11400000, guid: d356b94f92f044646a1ebe5feec4e6a0, type: 2}
  - m_RefCount: 1
    m_Data: {fileID: 11400000, guid: 7a8e97eea6974b24e831782d2dc9baa1, type: 2}
  - m_RefCount: 1
    m_Data: {fileID: 11400000, guid: 8f5dd2311cccfc74e993119fbefcdf76, type: 2}
  - m_RefCount: 1
    m_Data: {fileID: 11400000, guid: 814a320acd37af1478bd7a84906623f4, type: 2}
  - m_RefCount: 1
    m_Data: {fileID: 11400000, guid: 357f837f98668bc40b91d983977b92ad, type: 2}
  - m_RefCount: 1
    m_Data: {fileID: 11400000, guid: 867089dd06b759e4489e71e2ebe27cf3, type: 2}
  - m_RefCount: 1
    m_Data: {fileID: 11400000, guid: 694189731f9848e49b0b799c75d48013, type: 2}
  - m_RefCount: 1
    m_Data: {fileID: 11400000, guid: 190e4126f25e21f498d4b77314a9c5f3, type: 2}
  - m_RefCount: 1
    m_Data: {fileID: 11400000, guid: 487d0a70aef489643abee91f772ea66a, type: 2}
  - m_RefCount: 1
    m_Data: {fileID: 11400000, guid: f2fb8009fc383d04a90feb72445a2d6a, type: 2}
  - m_RefCount: 1
    m_Data: {fileID: 11400000, guid: 3e988bff4dea8064eaa65a8466c600c9, type: 2}
  - m_RefCount: 1
    m_Data: {fileID: 11400000, guid: abe904a6961b753419ef7d27fa1b6aec, type: 2}
  - m_RefCount: 1
    m_Data: {fileID: 11400000, guid: aa49faa211d8f004ba3c67f4c1c60016, type: 2}
  - m_RefCount: 1
    m_Data: {fileID: 11400000, guid: ff24d4aa75011e5439c75a0e38aaab16, type: 2}
  - m_RefCount: 1
    m_Data: {fileID: 11400000, guid: b7a6ef924d108c34ca44ef84b30dcb8c, type: 2}
  - m_RefCount: 1
    m_Data: {fileID: 11400000, guid: 853ffd8a477f3a148b5e310991b4ab36, type: 2}
  - m_RefCount: 1
    m_Data: {fileID: 11400000, guid: b098ce9a61f5a5c49835f4415740ecf0, type: 2}
  - m_RefCount: 1
    m_Data: {fileID: 11400000, guid: 5784849cf28c2464f84b09598248af64, type: 2}
  - m_RefCount: 1
    m_Data: {fileID: 11400000, guid: 5d02d4156373864479feb46f02918f5a, type: 2}
  - m_RefCount: 1
    m_Data: {fileID: 11400000, guid: 39f8200e7c44c934a99079b3e19251ef, type: 2}
  - m_RefCount: 1
    m_Data: {fileID: 11400000, guid: 576b0ebe0bb76c1488fb055b5162b519, type: 2}
  - m_RefCount: 1
    m_Data: {fileID: 11400000, guid: 9a2c11c8d5c73054db253ced18cb6b7e, type: 2}
  - m_RefCount: 1
    m_Data: {fileID: 11400000, guid: 1c304e2902588cb4e83e0d917ae4c347, type: 2}
  - m_RefCount: 1
    m_Data: {fileID: 11400000, guid: 1cdbd8fe7fd8dc849a923e784b86cdcc, type: 2}
  - m_RefCount: 1
    m_Data: {fileID: 11400000, guid: 473b6e903a91a3947a3cad02e979244f, type: 2}
  - m_RefCount: 1
    m_Data: {fileID: 11400000, guid: 6fff9ee70ea163d4aa4b60bbf12824f7, type: 2}
  - m_RefCount: 1
    m_Data: {fileID: 11400000, guid: e5fce42e5a5097345be0b68319f284a6, type: 2}
  - m_RefCount: 1
    m_Data: {fileID: 11400000, guid: 0a231dffd9805e744bceb2773617abda, type: 2}
  - m_RefCount: 1
    m_Data: {fileID: 11400000, guid: 04bd88660d111a341a4f44f3cb84fbd1, type: 2}
  - m_RefCount: 1
    m_Data: {fileID: 11400000, guid: 26ae9a5b004869d4babd011f17320f86, type: 2}
  - m_RefCount: 1
    m_Data: {fileID: 11400000, guid: a60625b9e61f14d488b5c0e064b8a040, type: 2}
  - m_RefCount: 1
    m_Data: {fileID: 11400000, guid: cbfdce6644b6c214e9ecee92bb0c41d4, type: 2}
  - m_RefCount: 1
    m_Data: {fileID: 11400000, guid: ae5ebe88c3c10ca4285e04e6231e181d, type: 2}
  - m_RefCount: 1
    m_Data: {fileID: 11400000, guid: c63b9be6f4e6c0741b349d7e0ed93e10, type: 2}
  - m_RefCount: 1
    m_Data: {fileID: 11400000, guid: e23f6a269dee95444a7d1ea8b28daf44, type: 2}
  - m_RefCount: 1
    m_Data: {fileID: 11400000, guid: 3573aa42746bad14aa3262cc5216a87e, type: 2}
  - m_RefCount: 1
    m_Data: {fileID: 11400000, guid: 72931fa3b227e5c478649172c27f2d75, type: 2}
  - m_RefCount: 1
    m_Data: {fileID: 11400000, guid: 21edd03de16d0a04cbf71de770153291, type: 2}
  - m_RefCount: 1
    m_Data: {fileID: 11400000, guid: 619d57052c4f042429326045c6fbb259, type: 2}
  - m_RefCount: 1
    m_Data: {fileID: 11400000, guid: 137c61f40a37de04699e904ad63facee, type: 2}
  - m_RefCount: 1
    m_Data: {fileID: 11400000, guid: 12078d978ce53d44e9dfdc25063448e7, type: 2}
  - m_RefCount: 1
    m_Data: {fileID: 11400000, guid: 877485cb91b9dc24bbba9e27393341f3, type: 2}
  - m_RefCount: 1
    m_Data: {fileID: 11400000, guid: cef9e4d9d6f5f734ab93f1a801ddf654, type: 2}
  - m_RefCount: 1
    m_Data: {fileID: 11400000, guid: 6d390125c24083c4da6f94952fe26bcc, type: 2}
  - m_RefCount: 1
    m_Data: {fileID: 11400000, guid: 50eb98ec8d8495c4e873b3d25afe5346, type: 2}
  - m_RefCount: 1
    m_Data: {fileID: 11400000, guid: 3e027ff465321a94b8ca8f83df6a4ae1, type: 2}
  - m_RefCount: 1
    m_Data: {fileID: 11400000, guid: c8cafc04b27765f45b4439e5ee667d16, type: 2}
  - m_RefCount: 1
    m_Data: {fileID: 11400000, guid: 6eafa6cbf794d9c4888b714f3d48aea6, type: 2}
  - m_RefCount: 1
    m_Data: {fileID: 11400000, guid: c343de50c4b62f346986a7f69e56f4ec, type: 2}
  - m_RefCount: 1
    m_Data: {fileID: 11400000, guid: 9c054efd1fe610c459315fed734b7c1e, type: 2}
  - m_RefCount: 1
    m_Data: {fileID: 11400000, guid: 800a36341ac87ad45898538f15623f06, type: 2}
  - m_RefCount: 1
    m_Data: {fileID: 11400000, guid: 5651550f1dc2a1f4eb769b3f8a72fb20, type: 2}
  - m_RefCount: 1
    m_Data: {fileID: 11400000, guid: bb037980224471746ac6d2318ebe2859, type: 2}
  - m_RefCount: 1
    m_Data: {fileID: 11400000, guid: b204da49355b35342b0b4251db7230b9, type: 2}
  - m_RefCount: 1
    m_Data: {fileID: 11400000, guid: d60e2ab8b49859d4fb576c12be729ad9, type: 2}
  - m_RefCount: 1
    m_Data: {fileID: 11400000, guid: 16b9f389d07ea27468c4a3a217c26073, type: 2}
  - m_RefCount: 1
    m_Data: {fileID: 11400000, guid: 56a43821d8ca06e448a41c7f631695f1, type: 2}
  - m_RefCount: 1
    m_Data: {fileID: 11400000, guid: d4de520f576550a4c9d42f07dae7bfcf, type: 2}
  - m_RefCount: 1
    m_Data: {fileID: 11400000, guid: f650b1a8fed36a746a0dcff3d3a28081, type: 2}
  - m_RefCount: 1
    m_Data: {fileID: 11400000, guid: b738d7800a3b16f4b8c9e62277087826, type: 2}
  - m_RefCount: 1
    m_Data: {fileID: 11400000, guid: 5364747ca47a23f4bb874addfe2901e0, type: 2}
  - m_RefCount: 1
    m_Data: {fileID: 11400000, guid: 865cbb074a8fedf4099b50b43e4953ca, type: 2}
  - m_RefCount: 1
    m_Data: {fileID: 11400000, guid: 027b262fac81bc245b47c5fe388967d4, type: 2}
  - m_RefCount: 1
    m_Data: {fileID: 11400000, guid: e38bb11c71954504d97868c75561f47a, type: 2}
  - m_RefCount: 1
    m_Data: {fileID: 11400000, guid: 8c8301990630df94096f538af8eadf72, type: 2}
  - m_RefCount: 1
    m_Data: {fileID: 11400000, guid: 353bce504109b6e409c1847f0e1e965f, type: 2}
  - m_RefCount: 1
    m_Data: {fileID: 11400000, guid: d5a51d6bda047784d86393d4dfd7a341, type: 2}
  - m_RefCount: 1
    m_Data: {fileID: 11400000, guid: 13c8b34d4f53c73438b3585ee441e6e9, type: 2}
  - m_RefCount: 1
    m_Data: {fileID: 11400000, guid: cf668eaee338d7946952b556ca1b4985, type: 2}
  - m_RefCount: 1
    m_Data: {fileID: 11400000, guid: 3f0ee9550b7215b43b054775019c98bf, type: 2}
  - m_RefCount: 1
    m_Data: {fileID: 11400000, guid: f8174c94a38fd7b42bd864858eb7ff28, type: 2}
  - m_RefCount: 1
    m_Data: {fileID: 11400000, guid: e292e8aded7cb8747b2287d4224d790e, type: 2}
  - m_RefCount: 1
    m_Data: {fileID: 11400000, guid: 9996ad8e20707114c96ebed0c727d6d4, type: 2}
  - m_RefCount: 1
    m_Data: {fileID: 11400000, guid: 007dac3963804a340b8258f80802dc05, type: 2}
  m_TileSpriteArray:
  - m_RefCount: 1
    m_Data: {fileID: -675838798, guid: 413986c4a668c374d8de72a47621b531, type: 3}
  - m_RefCount: 1
    m_Data: {fileID: 1119067462, guid: 413986c4a668c374d8de72a47621b531, type: 3}
  - m_RefCount: 1
    m_Data: {fileID: 2096717990, guid: 413986c4a668c374d8de72a47621b531, type: 3}
  - m_RefCount: 1
    m_Data: {fileID: -976993680, guid: 413986c4a668c374d8de72a47621b531, type: 3}
  - m_RefCount: 1
    m_Data: {fileID: -829293311, guid: 413986c4a668c374d8de72a47621b531, type: 3}
  - m_RefCount: 1
    m_Data: {fileID: 1952400752, guid: 413986c4a668c374d8de72a47621b531, type: 3}
  - m_RefCount: 1
    m_Data: {fileID: 191718865, guid: 413986c4a668c374d8de72a47621b531, type: 3}
  - m_RefCount: 1
    m_Data: {fileID: 1851843852, guid: 413986c4a668c374d8de72a47621b531, type: 3}
  - m_RefCount: 1
    m_Data: {fileID: 356474817, guid: 413986c4a668c374d8de72a47621b531, type: 3}
  - m_RefCount: 1
    m_Data: {fileID: -706754988, guid: 413986c4a668c374d8de72a47621b531, type: 3}
  - m_RefCount: 1
    m_Data: {fileID: -473291991, guid: 413986c4a668c374d8de72a47621b531, type: 3}
  - m_RefCount: 1
    m_Data: {fileID: 1026151251, guid: 413986c4a668c374d8de72a47621b531, type: 3}
  - m_RefCount: 1
    m_Data: {fileID: 1705101310, guid: 413986c4a668c374d8de72a47621b531, type: 3}
  - m_RefCount: 1
    m_Data: {fileID: 496980744, guid: 413986c4a668c374d8de72a47621b531, type: 3}
  - m_RefCount: 1
    m_Data: {fileID: -1667274656, guid: 413986c4a668c374d8de72a47621b531, type: 3}
  - m_RefCount: 1
    m_Data: {fileID: -145486147, guid: 413986c4a668c374d8de72a47621b531, type: 3}
  - m_RefCount: 1
    m_Data: {fileID: -2063175260, guid: 413986c4a668c374d8de72a47621b531, type: 3}
  - m_RefCount: 1
    m_Data: {fileID: 335464914, guid: 413986c4a668c374d8de72a47621b531, type: 3}
  - m_RefCount: 1
    m_Data: {fileID: -1600866933, guid: 413986c4a668c374d8de72a47621b531, type: 3}
  - m_RefCount: 1
    m_Data: {fileID: -95885895, guid: 413986c4a668c374d8de72a47621b531, type: 3}
  - m_RefCount: 1
    m_Data: {fileID: 1455201222, guid: 413986c4a668c374d8de72a47621b531, type: 3}
  - m_RefCount: 1
    m_Data: {fileID: 940454334, guid: 413986c4a668c374d8de72a47621b531, type: 3}
  - m_RefCount: 1
    m_Data: {fileID: -1443545860, guid: 413986c4a668c374d8de72a47621b531, type: 3}
  - m_RefCount: 1
    m_Data: {fileID: 1468337996, guid: 413986c4a668c374d8de72a47621b531, type: 3}
  - m_RefCount: 1
    m_Data: {fileID: -209941989, guid: 413986c4a668c374d8de72a47621b531, type: 3}
  - m_RefCount: 1
    m_Data: {fileID: -1792957282, guid: 413986c4a668c374d8de72a47621b531, type: 3}
  - m_RefCount: 1
    m_Data: {fileID: -1175052604, guid: 413986c4a668c374d8de72a47621b531, type: 3}
  - m_RefCount: 1
    m_Data: {fileID: 260697799, guid: 413986c4a668c374d8de72a47621b531, type: 3}
  - m_RefCount: 1
    m_Data: {fileID: -615525547, guid: 413986c4a668c374d8de72a47621b531, type: 3}
  - m_RefCount: 1
    m_Data: {fileID: -215573822, guid: 413986c4a668c374d8de72a47621b531, type: 3}
  - m_RefCount: 1
    m_Data: {fileID: 292152037, guid: 413986c4a668c374d8de72a47621b531, type: 3}
  - m_RefCount: 1
    m_Data: {fileID: 2074817452, guid: 413986c4a668c374d8de72a47621b531, type: 3}
  - m_RefCount: 1
    m_Data: {fileID: -1078144392, guid: 413986c4a668c374d8de72a47621b531, type: 3}
  - m_RefCount: 1
    m_Data: {fileID: 2068480311, guid: 413986c4a668c374d8de72a47621b531, type: 3}
  - m_RefCount: 1
    m_Data: {fileID: -934582799, guid: 413986c4a668c374d8de72a47621b531, type: 3}
  - m_RefCount: 1
    m_Data: {fileID: -2144329923, guid: 413986c4a668c374d8de72a47621b531, type: 3}
  - m_RefCount: 1
    m_Data: {fileID: -33988886, guid: 413986c4a668c374d8de72a47621b531, type: 3}
  - m_RefCount: 1
    m_Data: {fileID: -1778274086, guid: 413986c4a668c374d8de72a47621b531, type: 3}
  - m_RefCount: 1
    m_Data: {fileID: -321456099, guid: 413986c4a668c374d8de72a47621b531, type: 3}
  - m_RefCount: 1
    m_Data: {fileID: 270756781, guid: 413986c4a668c374d8de72a47621b531, type: 3}
  - m_RefCount: 1
    m_Data: {fileID: -965572706, guid: 413986c4a668c374d8de72a47621b531, type: 3}
  - m_RefCount: 1
    m_Data: {fileID: 1793694956, guid: 413986c4a668c374d8de72a47621b531, type: 3}
  - m_RefCount: 1
    m_Data: {fileID: 30939052, guid: 413986c4a668c374d8de72a47621b531, type: 3}
  - m_RefCount: 1
    m_Data: {fileID: -1698372227, guid: 413986c4a668c374d8de72a47621b531, type: 3}
  - m_RefCount: 1
    m_Data: {fileID: -948933158, guid: 413986c4a668c374d8de72a47621b531, type: 3}
  - m_RefCount: 1
    m_Data: {fileID: -10492959, guid: 413986c4a668c374d8de72a47621b531, type: 3}
  - m_RefCount: 1
    m_Data: {fileID: -1472443104, guid: 413986c4a668c374d8de72a47621b531, type: 3}
  - m_RefCount: 1
    m_Data: {fileID: 155529369, guid: 413986c4a668c374d8de72a47621b531, type: 3}
  - m_RefCount: 1
    m_Data: {fileID: 1142903617, guid: 413986c4a668c374d8de72a47621b531, type: 3}
  - m_RefCount: 1
    m_Data: {fileID: 900887005, guid: 413986c4a668c374d8de72a47621b531, type: 3}
  - m_RefCount: 1
    m_Data: {fileID: 1068484444, guid: 413986c4a668c374d8de72a47621b531, type: 3}
  - m_RefCount: 1
    m_Data: {fileID: 294900906, guid: 413986c4a668c374d8de72a47621b531, type: 3}
  - m_RefCount: 1
    m_Data: {fileID: -1385306850, guid: 413986c4a668c374d8de72a47621b531, type: 3}
  - m_RefCount: 1
    m_Data: {fileID: 339819960, guid: 413986c4a668c374d8de72a47621b531, type: 3}
  - m_RefCount: 1
    m_Data: {fileID: -1710542113, guid: 413986c4a668c374d8de72a47621b531, type: 3}
  - m_RefCount: 1
    m_Data: {fileID: -1567598863, guid: 413986c4a668c374d8de72a47621b531, type: 3}
  - m_RefCount: 1
    m_Data: {fileID: -52889222, guid: 413986c4a668c374d8de72a47621b531, type: 3}
  - m_RefCount: 1
    m_Data: {fileID: -1909188544, guid: 413986c4a668c374d8de72a47621b531, type: 3}
  - m_RefCount: 1
    m_Data: {fileID: -1854571189, guid: 413986c4a668c374d8de72a47621b531, type: 3}
  - m_RefCount: 1
    m_Data: {fileID: 200889548, guid: 413986c4a668c374d8de72a47621b531, type: 3}
  - m_RefCount: 1
    m_Data: {fileID: 853324835, guid: 413986c4a668c374d8de72a47621b531, type: 3}
  - m_RefCount: 1
    m_Data: {fileID: 1038027930, guid: 413986c4a668c374d8de72a47621b531, type: 3}
  - m_RefCount: 1
    m_Data: {fileID: 696814721, guid: 413986c4a668c374d8de72a47621b531, type: 3}
  - m_RefCount: 1
    m_Data: {fileID: 936571115, guid: 413986c4a668c374d8de72a47621b531, type: 3}
  - m_RefCount: 1
    m_Data: {fileID: -1555326169, guid: 413986c4a668c374d8de72a47621b531, type: 3}
  - m_RefCount: 1
    m_Data: {fileID: 1837939797, guid: 413986c4a668c374d8de72a47621b531, type: 3}
  - m_RefCount: 1
    m_Data: {fileID: 1590909032, guid: 413986c4a668c374d8de72a47621b531, type: 3}
  - m_RefCount: 1
    m_Data: {fileID: -1375022010, guid: 413986c4a668c374d8de72a47621b531, type: 3}
  - m_RefCount: 1
    m_Data: {fileID: -1243276261, guid: 413986c4a668c374d8de72a47621b531, type: 3}
  - m_RefCount: 1
    m_Data: {fileID: 336662287, guid: 413986c4a668c374d8de72a47621b531, type: 3}
  - m_RefCount: 1
    m_Data: {fileID: 139594778, guid: 413986c4a668c374d8de72a47621b531, type: 3}
  - m_RefCount: 1
    m_Data: {fileID: -396160080, guid: 413986c4a668c374d8de72a47621b531, type: 3}
  - m_RefCount: 1
    m_Data: {fileID: -1947539679, guid: 413986c4a668c374d8de72a47621b531, type: 3}
  - m_RefCount: 1
    m_Data: {fileID: -936415405, guid: 413986c4a668c374d8de72a47621b531, type: 3}
  - m_RefCount: 1
    m_Data: {fileID: 2136306947, guid: 413986c4a668c374d8de72a47621b531, type: 3}
  - m_RefCount: 1
    m_Data: {fileID: -1031590249, guid: 413986c4a668c374d8de72a47621b531, type: 3}
  - m_RefCount: 1
    m_Data: {fileID: 1463553827, guid: 413986c4a668c374d8de72a47621b531, type: 3}
  - m_RefCount: 1
    m_Data: {fileID: -1286625247, guid: 413986c4a668c374d8de72a47621b531, type: 3}
  - m_RefCount: 1
    m_Data: {fileID: 1739822069, guid: 413986c4a668c374d8de72a47621b531, type: 3}
  - m_RefCount: 1
    m_Data: {fileID: 2122447818, guid: 413986c4a668c374d8de72a47621b531, type: 3}
  - m_RefCount: 1
    m_Data: {fileID: -544765164, guid: 413986c4a668c374d8de72a47621b531, type: 3}
  - m_RefCount: 1
    m_Data: {fileID: 1816927157, guid: 413986c4a668c374d8de72a47621b531, type: 3}
  - m_RefCount: 1
    m_Data: {fileID: -2069751796, guid: 413986c4a668c374d8de72a47621b531, type: 3}
  - m_RefCount: 1
    m_Data: {fileID: 1313704385, guid: 413986c4a668c374d8de72a47621b531, type: 3}
  - m_RefCount: 1
    m_Data: {fileID: -334337599, guid: 413986c4a668c374d8de72a47621b531, type: 3}
  - m_RefCount: 1
    m_Data: {fileID: 692291366, guid: 413986c4a668c374d8de72a47621b531, type: 3}
  - m_RefCount: 1
    m_Data: {fileID: -2081927776, guid: 413986c4a668c374d8de72a47621b531, type: 3}
  - m_RefCount: 1
    m_Data: {fileID: 1703717789, guid: 413986c4a668c374d8de72a47621b531, type: 3}
  - m_RefCount: 1
    m_Data: {fileID: 194736804, guid: 413986c4a668c374d8de72a47621b531, type: 3}
  - m_RefCount: 1
    m_Data: {fileID: 1432204281, guid: 413986c4a668c374d8de72a47621b531, type: 3}
  - m_RefCount: 1
    m_Data: {fileID: 1452019929, guid: 413986c4a668c374d8de72a47621b531, type: 3}
  - m_RefCount: 1
    m_Data: {fileID: -841728666, guid: 413986c4a668c374d8de72a47621b531, type: 3}
  - m_RefCount: 1
    m_Data: {fileID: -1445224283, guid: 413986c4a668c374d8de72a47621b531, type: 3}
  - m_RefCount: 1
    m_Data: {fileID: 710748962, guid: 413986c4a668c374d8de72a47621b531, type: 3}
  - m_RefCount: 1
    m_Data: {fileID: -1070340169, guid: 413986c4a668c374d8de72a47621b531, type: 3}
  - m_RefCount: 1
    m_Data: {fileID: 22883559, guid: 413986c4a668c374d8de72a47621b531, type: 3}
  - m_RefCount: 1
    m_Data: {fileID: 957279404, guid: 413986c4a668c374d8de72a47621b531, type: 3}
  - m_RefCount: 1
    m_Data: {fileID: 1680359067, guid: 413986c4a668c374d8de72a47621b531, type: 3}
  - m_RefCount: 1
    m_Data: {fileID: -1065984779, guid: 413986c4a668c374d8de72a47621b531, type: 3}
  - m_RefCount: 1
    m_Data: {fileID: 880806980, guid: 413986c4a668c374d8de72a47621b531, type: 3}
  - m_RefCount: 1
    m_Data: {fileID: 1773068463, guid: 413986c4a668c374d8de72a47621b531, type: 3}
  - m_RefCount: 1
    m_Data: {fileID: -1661554123, guid: 413986c4a668c374d8de72a47621b531, type: 3}
  - m_RefCount: 1
    m_Data: {fileID: -1388665813, guid: 413986c4a668c374d8de72a47621b531, type: 3}
  - m_RefCount: 1
    m_Data: {fileID: -480523513, guid: 413986c4a668c374d8de72a47621b531, type: 3}
  - m_RefCount: 1
    m_Data: {fileID: 821682870, guid: 413986c4a668c374d8de72a47621b531, type: 3}
  - m_RefCount: 1
    m_Data: {fileID: 1450026354, guid: 413986c4a668c374d8de72a47621b531, type: 3}
  - m_RefCount: 1
    m_Data: {fileID: 1765077871, guid: 413986c4a668c374d8de72a47621b531, type: 3}
  - m_RefCount: 1
    m_Data: {fileID: -2043615882, guid: 413986c4a668c374d8de72a47621b531, type: 3}
  - m_RefCount: 1
    m_Data: {fileID: -192921074, guid: 413986c4a668c374d8de72a47621b531, type: 3}
  - m_RefCount: 1
    m_Data: {fileID: -1699850621, guid: 413986c4a668c374d8de72a47621b531, type: 3}
  - m_RefCount: 1
    m_Data: {fileID: -1708772827, guid: 413986c4a668c374d8de72a47621b531, type: 3}
  - m_RefCount: 1
    m_Data: {fileID: 1787409432, guid: 413986c4a668c374d8de72a47621b531, type: 3}
  - m_RefCount: 1
    m_Data: {fileID: 1261815228, guid: 413986c4a668c374d8de72a47621b531, type: 3}
  - m_RefCount: 1
    m_Data: {fileID: -2060310113, guid: 413986c4a668c374d8de72a47621b531, type: 3}
  - m_RefCount: 1
    m_Data: {fileID: -1016655536, guid: 413986c4a668c374d8de72a47621b531, type: 3}
  - m_RefCount: 1
    m_Data: {fileID: 426987927, guid: 413986c4a668c374d8de72a47621b531, type: 3}
  - m_RefCount: 1
    m_Data: {fileID: 1442794967, guid: 413986c4a668c374d8de72a47621b531, type: 3}
  - m_RefCount: 1
    m_Data: {fileID: -537019912, guid: 413986c4a668c374d8de72a47621b531, type: 3}
  - m_RefCount: 1
    m_Data: {fileID: -870413571, guid: 413986c4a668c374d8de72a47621b531, type: 3}
  - m_RefCount: 1
    m_Data: {fileID: -1198324434, guid: 413986c4a668c374d8de72a47621b531, type: 3}
  - m_RefCount: 1
    m_Data: {fileID: -1397956264, guid: 413986c4a668c374d8de72a47621b531, type: 3}
  - m_RefCount: 1
    m_Data: {fileID: 1611823044, guid: 413986c4a668c374d8de72a47621b531, type: 3}
  - m_RefCount: 1
    m_Data: {fileID: -967630493, guid: 413986c4a668c374d8de72a47621b531, type: 3}
  - m_RefCount: 1
    m_Data: {fileID: -359259466, guid: 413986c4a668c374d8de72a47621b531, type: 3}
  - m_RefCount: 1
    m_Data: {fileID: 622209403, guid: 413986c4a668c374d8de72a47621b531, type: 3}
  - m_RefCount: 1
    m_Data: {fileID: 1828258144, guid: 413986c4a668c374d8de72a47621b531, type: 3}
  - m_RefCount: 1
    m_Data: {fileID: 567679603, guid: 413986c4a668c374d8de72a47621b531, type: 3}
  - m_RefCount: 1
    m_Data: {fileID: 166973332, guid: 413986c4a668c374d8de72a47621b531, type: 3}
  - m_RefCount: 1
    m_Data: {fileID: -725169746, guid: 413986c4a668c374d8de72a47621b531, type: 3}
  - m_RefCount: 1
    m_Data: {fileID: 566273840, guid: 413986c4a668c374d8de72a47621b531, type: 3}
  - m_RefCount: 1
    m_Data: {fileID: -1640800684, guid: 413986c4a668c374d8de72a47621b531, type: 3}
  - m_RefCount: 1
    m_Data: {fileID: 556305535, guid: 413986c4a668c374d8de72a47621b531, type: 3}
  - m_RefCount: 1
    m_Data: {fileID: -196559189, guid: 413986c4a668c374d8de72a47621b531, type: 3}
  - m_RefCount: 1
    m_Data: {fileID: -373591803, guid: 413986c4a668c374d8de72a47621b531, type: 3}
  - m_RefCount: 1
    m_Data: {fileID: 1340309768, guid: 413986c4a668c374d8de72a47621b531, type: 3}
  - m_RefCount: 1
    m_Data: {fileID: -109002088, guid: 413986c4a668c374d8de72a47621b531, type: 3}
  - m_RefCount: 1
    m_Data: {fileID: 2146008359, guid: 413986c4a668c374d8de72a47621b531, type: 3}
  - m_RefCount: 1
    m_Data: {fileID: 508638673, guid: 413986c4a668c374d8de72a47621b531, type: 3}
  - m_RefCount: 1
    m_Data: {fileID: -1456584795, guid: 413986c4a668c374d8de72a47621b531, type: 3}
  - m_RefCount: 1
    m_Data: {fileID: 380391642, guid: 413986c4a668c374d8de72a47621b531, type: 3}
  - m_RefCount: 1
    m_Data: {fileID: -312519387, guid: 413986c4a668c374d8de72a47621b531, type: 3}
  - m_RefCount: 1
    m_Data: {fileID: 744690375, guid: 413986c4a668c374d8de72a47621b531, type: 3}
  - m_RefCount: 1
    m_Data: {fileID: -1332657964, guid: 413986c4a668c374d8de72a47621b531, type: 3}
  - m_RefCount: 1
    m_Data: {fileID: 689371076, guid: 413986c4a668c374d8de72a47621b531, type: 3}
  - m_RefCount: 1
    m_Data: {fileID: -1062901119, guid: 8049ea91a9d5fca4dab4024c0915dbe6, type: 3}
  - m_RefCount: 1
    m_Data: {fileID: -1294749412, guid: 8049ea91a9d5fca4dab4024c0915dbe6, type: 3}
  - m_RefCount: 1
    m_Data: {fileID: 206608987, guid: 8049ea91a9d5fca4dab4024c0915dbe6, type: 3}
  - m_RefCount: 1
    m_Data: {fileID: -54104599, guid: 8049ea91a9d5fca4dab4024c0915dbe6, type: 3}
  - m_RefCount: 1
    m_Data: {fileID: -768899087, guid: 8049ea91a9d5fca4dab4024c0915dbe6, type: 3}
  - m_RefCount: 1
    m_Data: {fileID: -2009359777, guid: 8049ea91a9d5fca4dab4024c0915dbe6, type: 3}
  - m_RefCount: 1
    m_Data: {fileID: -1223530331, guid: 8049ea91a9d5fca4dab4024c0915dbe6, type: 3}
  - m_RefCount: 1
    m_Data: {fileID: 110348206, guid: 8049ea91a9d5fca4dab4024c0915dbe6, type: 3}
  - m_RefCount: 1
    m_Data: {fileID: -1566690832, guid: 8049ea91a9d5fca4dab4024c0915dbe6, type: 3}
  - m_RefCount: 1
    m_Data: {fileID: -1510690235, guid: 8049ea91a9d5fca4dab4024c0915dbe6, type: 3}
  - m_RefCount: 1
    m_Data: {fileID: -603346997, guid: 8049ea91a9d5fca4dab4024c0915dbe6, type: 3}
  - m_RefCount: 1
    m_Data: {fileID: -237817131, guid: 8049ea91a9d5fca4dab4024c0915dbe6, type: 3}
  - m_RefCount: 1
    m_Data: {fileID: -1464770169, guid: 8049ea91a9d5fca4dab4024c0915dbe6, type: 3}
  - m_RefCount: 1
    m_Data: {fileID: -816387561, guid: 8049ea91a9d5fca4dab4024c0915dbe6, type: 3}
  - m_RefCount: 1
    m_Data: {fileID: 1164318786, guid: 8049ea91a9d5fca4dab4024c0915dbe6, type: 3}
  - m_RefCount: 1
    m_Data: {fileID: -578079406, guid: 8049ea91a9d5fca4dab4024c0915dbe6, type: 3}
  - m_RefCount: 1
    m_Data: {fileID: -1562301483, guid: ca6a66f8e2ae9c24c8c6b39c49206a0d, type: 3}
  - m_RefCount: 1
    m_Data: {fileID: 793524157, guid: ca6a66f8e2ae9c24c8c6b39c49206a0d, type: 3}
  - m_RefCount: 1
    m_Data: {fileID: 1737239975, guid: ca6a66f8e2ae9c24c8c6b39c49206a0d, type: 3}
  - m_RefCount: 1
    m_Data: {fileID: -1128177089, guid: ca6a66f8e2ae9c24c8c6b39c49206a0d, type: 3}
  - m_RefCount: 1
    m_Data: {fileID: 1934945256, guid: ca6a66f8e2ae9c24c8c6b39c49206a0d, type: 3}
  - m_RefCount: 1
    m_Data: {fileID: -1863118158, guid: ca6a66f8e2ae9c24c8c6b39c49206a0d, type: 3}
  - m_RefCount: 1
    m_Data: {fileID: -615794856, guid: ca6a66f8e2ae9c24c8c6b39c49206a0d, type: 3}
  - m_RefCount: 1
    m_Data: {fileID: 772265248, guid: ca6a66f8e2ae9c24c8c6b39c49206a0d, type: 3}
  - m_RefCount: 1
    m_Data: {fileID: -1993045984, guid: ca6a66f8e2ae9c24c8c6b39c49206a0d, type: 3}
  - m_RefCount: 1
    m_Data: {fileID: 1683493671, guid: ca6a66f8e2ae9c24c8c6b39c49206a0d, type: 3}
  - m_RefCount: 1
    m_Data: {fileID: -255574139, guid: ca6a66f8e2ae9c24c8c6b39c49206a0d, type: 3}
  - m_RefCount: 1
    m_Data: {fileID: 1037222060, guid: ca6a66f8e2ae9c24c8c6b39c49206a0d, type: 3}
  - m_RefCount: 1
    m_Data: {fileID: 342597186, guid: ca6a66f8e2ae9c24c8c6b39c49206a0d, type: 3}
  - m_RefCount: 1
    m_Data: {fileID: 2105375927, guid: ca6a66f8e2ae9c24c8c6b39c49206a0d, type: 3}
  - m_RefCount: 1
    m_Data: {fileID: 1290313062, guid: ca6a66f8e2ae9c24c8c6b39c49206a0d, type: 3}
  - m_RefCount: 1
    m_Data: {fileID: 1332197476, guid: ca6a66f8e2ae9c24c8c6b39c49206a0d, type: 3}
  m_TileMatrixArray:
  - m_RefCount: 176
    m_Data:
      e00: 1
      e01: 0
      e02: 0
      e03: 0
      e10: 0
      e11: 1
      e12: 0
      e13: 0
      e20: 0
      e21: 0
      e22: 1
      e23: 0
      e30: 0
      e31: 0
      e32: 0
      e33: 1
  m_TileColorArray:
  - m_RefCount: 176
    m_Data: {r: 1, g: 1, b: 1, a: 1}
  m_TileObjectToInstantiateArray: []
  m_AnimationFrameRate: 1
  m_Color: {r: 1, g: 1, b: 1, a: 1}
  m_Origin: {x: -1, y: -11, z: 0}
  m_Size: {x: 22, y: 16, z: 1}
  m_TileAnchor: {x: 0.5, y: 0.5, z: 0}
  m_TileOrientation: 0
  m_TileOrientationMatrix:
    e00: 1
    e01: 0
    e02: 0
    e03: 0
    e10: 0
    e11: 1
    e12: 0
    e13: 0
    e20: 0
    e21: 0
    e22: 1
    e23: 0
    e30: 0
    e31: 0
    e32: 0
    e33: 1
--- !u!483693784 &4218452133060167122
TilemapRenderer:
  m_ObjectHideFlags: 0
  m_CorrespondingSourceObject: {fileID: 0}
  m_PrefabInstance: {fileID: 0}
  m_PrefabAsset: {fileID: 0}
  m_GameObject: {fileID: 3870553697114143985}
  m_Enabled: 1
  m_CastShadows: 0
  m_ReceiveShadows: 0
  m_DynamicOccludee: 0
  m_StaticShadowCaster: 0
  m_MotionVectors: 1
  m_LightProbeUsage: 0
  m_ReflectionProbeUsage: 0
  m_RayTracingMode: 0
  m_RayTraceProcedural: 0
  m_RenderingLayerMask: 1
  m_RendererPriority: 0
  m_Materials:
  - {fileID: 10754, guid: 0000000000000000f000000000000000, type: 0}
  m_StaticBatchInfo:
    firstSubMesh: 0
    subMeshCount: 0
  m_StaticBatchRoot: {fileID: 0}
  m_ProbeAnchor: {fileID: 0}
  m_LightProbeVolumeOverride: {fileID: 0}
  m_ScaleInLightmap: 1
  m_ReceiveGI: 1
  m_PreserveUVs: 0
  m_IgnoreNormalsForChartDetection: 0
  m_ImportantGI: 0
  m_StitchLightmapSeams: 1
  m_SelectedEditorRenderState: 0
  m_MinimumChartSize: 4
  m_AutoUVMaxDistance: 0.5
  m_AutoUVMaxAngle: 89
  m_LightmapParameters: {fileID: 0}
  m_SortingLayerID: 0
  m_SortingLayer: 0
  m_SortingOrder: 0
  m_ChunkSize: {x: 32, y: 32, z: 32}
  m_ChunkCullingBounds: {x: 0, y: 0, z: 0}
  m_MaxChunkCount: 16
  m_MaxFrameAge: 16
  m_SortOrder: 0
  m_Mode: 0
  m_DetectChunkCullingBounds: 0
  m_MaskInteraction: 0
--- !u!1 &6613543926250640610
GameObject:
  m_ObjectHideFlags: 0
  m_CorrespondingSourceObject: {fileID: 0}
  m_PrefabInstance: {fileID: 0}
  m_PrefabAsset: {fileID: 0}
  serializedVersion: 6
  m_Component:
  - component: {fileID: 954503756807375242}
  - component: {fileID: 733301431349320679}
  m_Layer: 0
  m_Name: Terrain
  m_TagString: Untagged
  m_Icon: {fileID: 0}
  m_NavMeshLayer: 0
  m_StaticEditorFlags: 0
  m_IsActive: 1
--- !u!4 &954503756807375242
Transform:
  m_ObjectHideFlags: 0
  m_CorrespondingSourceObject: {fileID: 0}
  m_PrefabInstance: {fileID: 0}
  m_PrefabAsset: {fileID: 0}
  m_GameObject: {fileID: 6613543926250640610}
  m_LocalRotation: {x: 0, y: 0, z: 0, w: 1}
  m_LocalPosition: {x: 0, y: 0, z: 0}
  m_LocalScale: {x: 1, y: 1, z: 1}
  m_ConstrainProportionsScale: 0
  m_Children:
  - {fileID: 8930841689222223368}
  m_Father: {fileID: 0}
  m_RootOrder: 0
  m_LocalEulerAnglesHint: {x: 0, y: 0, z: 0}
--- !u!156049354 &733301431349320679
Grid:
  m_ObjectHideFlags: 0
  m_CorrespondingSourceObject: {fileID: 0}
  m_PrefabInstance: {fileID: 0}
  m_PrefabAsset: {fileID: 0}
  m_GameObject: {fileID: 6613543926250640610}
  m_Enabled: 1
  m_CellSize: {x: 1, y: 1, z: 0}
  m_CellGap: {x: 0, y: 0, z: 0}
  m_CellLayout: 0
  m_CellSwizzle: 0
--- !u!114 &1259773393840121035
MonoBehaviour:
  m_ObjectHideFlags: 0
  m_CorrespondingSourceObject: {fileID: 0}
  m_PrefabInstance: {fileID: 0}
  m_PrefabAsset: {fileID: 0}
  m_GameObject: {fileID: 0}
  m_Enabled: 1
  m_EditorHideFlags: 0
  m_Script: {fileID: 12395, guid: 0000000000000000e000000000000000, type: 0}
  m_Name: Palette Settings
  m_EditorClassIdentifier: 
  cellSizing: 0
  m_TransparencySortMode: 0
  m_TransparencySortAxis: {x: 0, y: 0, z: 1}
